"VertexlitGeneric"
{
	"$basetexture" "models/weapons/bo4/c_bo4_welling/ximage_c8cac6a6c04c277"
	$color2 "[0.5 0.5 0.5]"
	$additive  "1"
	"$bumpmap" "models/weapons/bo4/c_bo4_welling/ximage_c8caf6a6c04c790"
	$phongexponenttexture "models/weapons/bo4/c_bo4_welling/ximage_c8cb06a6c04c943"
	
	$phong "1"
	$phongboost "16"
	$phongfresnelranges "[1.0 1.0 1.0]"
	$phongalbedotint "1"

	$envmap "env_cubemap"
	$envmaptint "[0.01 0.01 0.01]"
	$basemapalphaenvmapmask  "1"
	$envmapfresnel "1"
}
