"VertexlitGeneric"
{
	"$basetexture" "models/weapons/bo4/c_bo4_welling/ximage_aef5a08184d9268"
	$color2 "[0.5 0.5 0.5]"
	$additive  "1"
	"$bumpmap" "models/weapons/bo4/c_bo4_welling/ximage_aef4708184d721f"
	$phongexponenttexture "models/weapons/bo4/c_bo4_welling/ximage_aef4608184d706c"
	
	$phong "1"
	$phongboost "16"
	$phongfresnelranges "[1.0 1.0 1.0]"
	$phongalbedotint "1"

	$envmap "env_cubemap"
	$envmaptint "[0.01 0.01 0.01]"
	$basemapalphaenvmapmask  "1"
	$envmapfresnel "1"
}
