VertexLitGeneric
{
	"$basetexture"		"models\weapons\v_models\rif_cq300\upper_diff"
	"$bumpmap"   	"models\weapons\v_models\rif_cq300\upper_n"
	"$phongexponenttexture" 	"models\weapons\v_models\rif_cq300\upper_s"

	"$nocull" "1"
	"$no_draw" "1"

	$envmap						env_cubemap
	$envmaptint					"[ 0.027 0.03 0.035 ]"
	$basemapalphaenvmapmask		1
	$envmapfresnel				1
	
	$phong						1
	$phongboost					0.84
	$phongtint					"[.9 .9 1 ]"
	//$phongalbedotint			0
	//$phongalbedoboost			24
	$phongfresnelranges			"[1 3 6]"
	$normalmapalphaphongmask	1
	
	$rimlight					1
	$rimlightexponent			120
	$rimmask					1
	$rimlightboost				0.2
 
}
