VertexLitGeneric
{
	"$baseTexture" "models\loyalists\h1\psd9\wpn_h1_pst_prokolot_base_col"
	"$bumpmap"     "models\loyalists\h1\psd9\wpn_h1_pst_prokolot_base_nml"
	"$PhongExponentTexture" "models\loyalists\h1\psd9\wpn_h1_pst_prokolot_base_spc"
	
	"$normalmapalphaenvmapmask" "1"
	"$envmap"					"env_cubemap"
	"$envmapfresnel" 			"1"
	"$envmapFresnelMinMaxExp"	"[0 .4 1]"
	"$envmaptint"				"[.05 .05 .05]"
	
	"$normalmapalphaphongmask"	"1"
	"$phong" 					"1"
	// "$phongexponent" 			"50"
	"$phongboost" 				"1.5"
	"$phongfresnelranges" 		"[2 4 6]"
	"$phongtint" 				"[1 1 1]"
	"$phongalbedotint" 			"1"	

	// "$rimlight"     "1"
	// "$rimlightexponent"   "100" 
	// "$rimlightboost"   "0.1"

	"$halflambert"     "1"
	"$nocull" "1"
	"$nodecal" "1"
}