"VertexLitGeneric"
{
	"$basetexture"	"models\weapons\v_models\sok_x95\details_d"
	"$bumpmap"		"models\weapons\v_models\sok_x95\details_n"
	"$phongexponenttexture"    "models\weapons\v_models\sok_x95\details_exp"
	"$phong" "1"
	"$phongboost" "0.8"
	"$phongalbedoboost" "50"
	"$phongfresnelranges" "[0.7 0.9 1]"
//	"$phongexponent" 5

	"$basealphaenvmapmask" "1"
	"$basemapalphaphongmask" "1"
	
	"$envmap" "env_cubemap"
	"$envmapfresnel" "1"
	"$envmaptint" 		"[0.1 0.1 0.1]"
	
	"$selfillum" "1"
	"$selfillummask" "models\weapons\v_models\sok_x95\details_i"

	"$phongalbedotint" "1"
	"$phongdisablehalflambert" "1"
	"$nocull" "1"
	
	"Proxies"
	{
		CrosshairColor
		{
			resultVar $selfillumtint
		}
	}
}