

"vertexlitgeneric"
{
"$basetexture" "models\Weapons\ram02\main_color"
"$bumpmap" "models\Weapons\ram02\main_normal"
"$PhongExponentTexture" "models\Weapons\ram02\main_spec"
"$envmap"                        "env_cubemap"      
"$envmaptint"                    "[.007 .007 .007]" 
"$normalmapalphaenvmapmask"      "1"  

"$phong"                         "1"                      
"$phongboost"                    "23"          

"$phongfresnelranges" "[2.6 4 4.6]"           
"$phongalbedotint"			"1"
//"$phongalbedoboost"			"15"
"$envmapfresnel"		"0.6"
"$phongexponent" "40"
"$envmapFresnelMinMaxExp""[0 1 2]"  

"$halflambert" 	   "1" 



}
