<?xml version="1.0" encoding="UTF-8" standalone="no"?>
<svg
   xmlns:dc="http://purl.org/dc/elements/1.1/"
   xmlns:cc="http://creativecommons.org/ns#"
   xmlns:rdf="http://www.w3.org/1999/02/22-rdf-syntax-ns#"
   xmlns:svg="http://www.w3.org/2000/svg"
   xmlns="http://www.w3.org/2000/svg"
   id="svg834"
   version="1.1"
   viewBox="0 0 24.505411 8.4667188"
   height="8.4667187mm"
   width="24.505411mm">
  <defs
     id="defs828" />
  <metadata
     id="metadata831">
    <rdf:RDF>
      <cc:Work
         rdf:about="">
        <dc:format>image/svg+xml</dc:format>
        <dc:type
           rdf:resource="http://purl.org/dc/dcmitype/StillImage" />
        <dc:title></dc:title>
      </cc:Work>
    </rdf:RDF>
  </metadata>
  <g
     transform="translate(-53.558762,-65.772367)"
     id="layer1">
    <path
       id="path847"
       d="m 64.065677,74.199373 c -0.0481,-0.02622 -0.107125,-0.07051 -0.131173,-0.09841 -0.300963,-0.34916 -0.360826,-0.404474 -0.485259,-0.448377 -0.04252,-0.015 -0.267938,-0.04087 -0.54148,-0.06215 -0.593903,-0.04619 -0.662813,-0.06447 -0.834656,-0.221303 -0.08342,-0.07614 -0.149508,-0.120167 -0.210143,-0.140006 -0.04865,-0.01592 -0.123868,-0.04664 -0.167155,-0.06827 -0.04329,-0.02164 -0.114121,-0.04944 -0.157408,-0.06179 -0.167248,-0.04771 -0.240925,-0.111202 -0.530459,-0.457147 -0.152272,-0.181939 -0.296419,-0.338236 -0.320328,-0.347326 -0.02599,-0.0099 -0.612605,-0.01653 -1.459003,-0.01653 -1.120704,0 -1.415559,0.0046 -1.415654,0.02186 -1.49e-4,0.02422 -0.103768,0.100567 -0.136508,0.100567 -0.02549,0 -0.02751,0.102444 -0.0033,0.16616 0.02757,0.07251 -0.0024,0.105826 -0.115845,0.128599 -0.130304,0.02617 -0.426341,0.02678 -0.426341,8.78e-4 0,-0.01285 -0.03029,-0.0156 -0.09182,-0.0083 -0.248089,0.02928 -0.281347,0.03028 -0.319845,0.0097 -0.02435,-0.01303 -0.06603,-0.0169 -0.107057,-0.01 -0.15869,0.02689 -0.303297,0.03191 -0.303297,0.01052 0,-0.01515 -0.02379,-0.01819 -0.08308,-0.01064 -0.22354,0.02849 -0.319188,0.03167 -0.319188,0.01064 0,-0.01513 -0.02385,-0.01822 -0.08308,-0.01075 -0.235435,0.02968 -0.30592,0.03201 -0.319177,0.01056 -0.01056,-0.01708 -0.03789,-0.01755 -0.126231,-0.0022 -0.06202,0.0108 -0.200378,0.01964 -0.30747,0.01964 -0.175122,0 -0.196547,-0.0034 -0.212957,-0.03409 -0.01364,-0.02549 -0.0108,-0.0497 0.01126,-0.09597 0.01623,-0.03404 0.02437,-0.06702 0.0181,-0.0733 -0.0063,-0.0063 -0.108035,0.0015 -0.226129,0.01731 -0.360379,0.04822 -0.34253,0.05223 -0.527506,-0.118625 -0.476158,-0.43981 -0.555055,-0.522855 -0.572401,-0.602498 -0.01639,-0.07524 0.05845,-2.713129 0.08188,-2.886154 0.01516,-0.111919 0.05274,-0.175795 0.155508,-0.264307 0.05026,-0.04329 0.21502,-0.188068 0.366132,-0.321735 l 0.274749,-0.243031 0.134634,0.02164 c 0.275799,0.04433 0.253377,0.04695 0.286553,-0.03341 0.03084,-0.0747 0.09678,-0.115942 0.216423,-0.135356 0.04159,-0.0067 0.06259,-0.02387 0.08378,-0.06831 l 0.02828,-0.0593 h 0.169681 c 0.149351,0 0.174458,-0.0045 0.209553,-0.03746 0.03177,-0.02985 0.10839,-0.0494 0.377157,-0.09626 l 0.337286,-0.0588 1.657952,-9.9e-5 c 1.071488,-9.9e-5 1.669506,0.0061 1.690614,0.01736 0.01796,0.0096 0.04653,0.0538 0.06348,0.09818 l 0.03082,0.0807 0.473534,-0.0078 0.473533,-0.0078 0.419755,-0.101936 c 0.415972,-0.101018 0.422198,-0.101949 0.690847,-0.103331 0.23792,-0.0012 0.279624,0.0029 0.34082,0.03359 0.06174,0.03097 0.133463,0.111025 0.15353,0.171364 0.0045,0.01359 0.05501,0.02213 0.142722,0.02416 0.0971,0.0022 0.144632,0.01119 0.167013,0.03144 0.02682,0.02427 0.06094,0.02661 0.238859,0.01638 0.114167,-0.0066 0.22102,-0.01884 0.237452,-0.02729 0.01643,-0.0085 0.05866,-0.06684 0.09384,-0.12975 0.03518,-0.06291 0.08076,-0.124876 0.101296,-0.137706 0.02053,-0.01283 0.182935,-0.04449 0.360893,-0.07035 0.177959,-0.02586 0.339787,-0.05085 0.359619,-0.05553 0.02627,-0.0062 0.0416,0.0037 0.05647,0.03629 0.02866,0.0629 0.08029,0.06044 0.06934,-0.0033 -0.0045,-0.02645 -0.01367,-0.06064 -0.02029,-0.07597 -0.01073,-0.02484 0.02934,-0.02898 0.369184,-0.03813 0.209673,-0.0056 0.394997,-0.01559 0.411831,-0.0221 0.02136,-0.0083 0.03061,-0.0034 0.03061,0.01627 0,0.01645 0.01451,0.02811 0.03498,0.02811 0.02902,0 0.03498,-0.01166 0.03498,-0.06845 0,-0.06586 0.0041,-0.07074 0.109311,-0.128875 0.113272,-0.06261 0.389491,-0.159688 0.511576,-0.179795 0.03848,-0.0063 0.09415,-0.02531 0.123726,-0.04216 0.02957,-0.01685 0.09647,-0.04043 0.148663,-0.0524 0.05219,-0.01197 0.106961,-0.02779 0.121706,-0.03516 0.01474,-0.0074 0.05213,-0.01896 0.08308,-0.02576 0.07645,-0.01679 0.08058,-0.07954 0.0052,-0.07954 -0.05585,0 -0.06071,-0.0093 -0.14231,-0.271091 -0.02099,-0.06734 -0.08425,-0.203531 -0.140584,-0.302655 -0.08736,-0.153712 -0.09937,-0.185129 -0.08162,-0.213547 0.01617,-0.0259 0.0159,-0.04689 -0.0012,-0.09424 -0.0178,-0.04924 -0.01772,-0.06782 4.41e-4,-0.0969 0.01236,-0.01979 0.02648,-0.03574 0.03138,-0.03545 0.0049,2.93e-4 0.06283,0.09434 0.128722,0.209005 0.0659,0.114662 0.125259,0.210836 0.131918,0.213721 0.0067,0.0029 0.03056,0.03547 0.05312,0.07241 0.0325,0.05323 0.04941,0.06556 0.08152,0.05942 0.03536,-0.0068 0.04818,0.0081 0.100752,0.116476 0.03313,0.06832 0.06996,0.155703 0.08185,0.19418 0.03174,0.102751 0.06849,0.171183 0.109247,0.203452 0.03987,0.03156 0.04554,0.09027 0.02278,0.235624 l -0.01398,0.08928 0.07538,0.01205 c 0.04146,0.0066 0.08364,0.0182 0.09374,0.02571 0.07191,0.05351 0.290447,0.0704 0.370526,0.02864 0.05848,-0.0305 0.191336,-0.03501 0.208593,-0.0071 0.0068,0.01095 0.03362,0.01491 0.06225,0.0092 0.03557,-0.0071 0.05035,-0.0031 0.05035,0.01353 0,0.02072 -0.117427,0.311715 -0.225375,0.558507 -0.04872,0.111396 -0.04809,0.15159 0.0024,0.151575 0.03259,-1e-5 0.06039,-0.03946 0.161781,-0.229597 0.06985,-0.130993 0.135572,-0.23326 0.153035,-0.238141 0.01683,-0.0047 0.03061,-0.01551 0.03061,-0.02401 0,-0.0085 0.04366,-0.01545 0.09703,-0.01545 0.08103,0 0.10371,0.0072 0.137552,0.04372 0.04915,0.05303 0.09772,0.05738 0.09772,0.0087 0,-0.03032 0.01166,-0.03498 0.08745,-0.03498 0.07255,0 0.08745,0.0054 0.08745,0.03148 0,0.0431 0.03397,0.07346 0.0822,0.07346 0.05319,0 0.05076,-0.02711 -0.0085,-0.09457 -0.03901,-0.04443 -0.06207,-0.111021 -0.115895,-0.334614 -0.03696,-0.153533 -0.07662,-0.298827 -0.08813,-0.322875 -0.02505,-0.05232 -0.01607,-0.104798 0.02303,-0.134554 0.02217,-0.01687 0.322425,-0.02186 1.340302,-0.02227 l 1.311733,-5.24e-4 0.787041,0.07179 0.78704,0.07179 2.710917,0.0025 c 2.166509,0.002 2.718784,0.007 2.750087,0.02489 0.02155,0.01231 0.05126,0.04576 0.06604,0.07433 0.02538,0.04909 0.03287,0.05197 0.135728,0.05234 0.161726,5.77e-4 0.192369,0.03217 0.249496,0.257277 0.03091,0.121778 0.03094,0.130251 9.27e-4,0.227367 -0.04005,0.12956 -0.07245,0.179579 -0.11632,0.179579 -0.02133,0 -0.04873,0.02299 -0.06965,0.05845 -0.03629,0.06151 -0.07418,0.0848 -0.18764,0.115353 -0.06531,0.01759 -0.07116,0.02487 -0.106542,0.132647 -0.02059,0.06272 -0.03744,0.125679 -0.03744,0.139905 0,0.04339 -0.07588,0.02941 -0.140579,-0.02589 -0.06817,-0.05827 -0.139508,-0.06672 -0.275804,-0.03269 -0.109861,0.02743 -0.190258,0.09335 -0.204146,0.167384 -0.01581,0.08429 -0.05054,0.08773 -0.140602,0.01392 -0.06264,-0.05133 -0.09818,-0.06645 -0.174702,-0.07435 -0.0814,-0.0084 -0.09606,-0.0055 -0.09606,0.01877 0,0.02112 -0.01614,0.02868 -0.06121,0.02868 -0.03367,0 -0.06121,-0.0079 -0.06121,-0.01749 0,-0.0096 -0.01181,-0.01749 -0.02623,-0.01749 -0.01632,0 -0.02623,0.01652 -0.02623,0.04372 0,0.03935 -0.007,0.04373 -0.06996,0.04373 -0.05124,0 -0.06996,-0.0072 -0.06996,-0.02685 0,-0.04841 -0.05509,-0.113068 -0.09633,-0.113068 -0.04661,0 -0.06044,0.02823 -0.06279,0.128232 l -0.0017,0.0729 -0.02067,-0.07742 c -0.01554,-0.05822 -0.03181,-0.08114 -0.06559,-0.0924 -0.04824,-0.01608 -0.137671,0.0082 -0.137671,0.0373 0,0.0094 -0.04132,0.01939 -0.09182,0.02229 l -0.09182,0.0053 -0.01882,0.104939 -0.01882,0.104939 -0.01397,-0.113355 c -0.0087,-0.07083 -0.02463,-0.12147 -0.04239,-0.13499 -0.01563,-0.0119 -0.07368,-0.02188 -0.128988,-0.02219 -0.07798,-4.46e-4 -0.100566,0.0053 -0.100566,0.02568 0,0.01898 -0.01949,0.02623 -0.07051,0.02623 -0.04654,0 -0.07393,0.0089 -0.08058,0.02623 -0.0061,0.01578 -0.03198,0.02605 -0.06504,0.02578 -0.04686,-3.96e-4 -0.0597,-0.01071 -0.08702,-0.06996 l -0.03205,-0.06951 h -0.103499 -0.103498 v 0.06018 c 0,0.07285 -0.03035,0.09932 -0.03816,0.03329 -0.0081,-0.06874 -0.09553,-0.09623 -0.138243,-0.04348 -0.023,0.0284 -0.04967,0.03746 -0.110275,0.03746 -0.08691,0 -0.09055,0.0049 -0.103081,0.139919 -0.0051,0.05533 -0.0071,0.05223 -0.02031,-0.03223 -0.01891,-0.120866 -0.05986,-0.160162 -0.166896,-0.160162 -0.04436,0 -0.08957,-0.0089 -0.100464,-0.01981 -0.02818,-0.02818 -0.07463,-0.0053 -0.07463,0.03675 0,0.029 -0.01134,0.03553 -0.06176,0.03553 -0.03877,0 -0.06551,0.0098 -0.07183,0.02623 -0.0061,0.01583 -0.03248,0.02623 -0.06661,0.02623 -0.05055,0 -0.05901,-0.0075 -0.07986,-0.07067 l -0.02332,-0.07066 -0.12377,0.0051 c -0.117182,0.0048 -0.12408,0.0074 -0.129622,0.0488 -0.0085,0.06312 -0.03787,0.08713 -0.03787,0.03091 0,-0.06429 -0.06506,-0.0845 -0.106656,-0.03313 -0.0216,0.02667 -0.04984,0.0372 -0.09978,0.0372 -0.07728,0 -0.08954,0.01574 -0.09308,0.119487 l -0.0022,0.06416 -0.0118,-0.07206 c -0.0199,-0.121476 -0.05613,-0.159375 -0.162405,-0.169857 -0.05088,-0.005 -0.112181,-0.01167 -0.13623,-0.01478 -0.03414,-0.0044 -0.04495,0.003 -0.04931,0.0337 -0.0044,0.03069 -0.01699,0.03935 -0.05739,0.03935 -0.02991,0 -0.05606,0.01109 -0.06187,0.02623 -0.0055,0.01443 -0.02496,0.02623 -0.04317,0.02623 -0.01821,0 -0.03311,0.01155 -0.03311,0.02567 0,0.01795 0.106257,0.06003 0.353357,0.139918 0.194347,0.06284 0.361666,0.114247 0.371824,0.114247 0.01016,0 0.0283,-0.01574 0.04031,-0.03498 0.02069,-0.03314 0.04079,-0.03498 0.381073,-0.03498 h 0.359228 l 0.04052,0.04372 c 0.03634,0.03921 0.05418,0.04373 0.17272,0.04373 0.115496,0 0.138766,-0.0055 0.184163,-0.04373 0.04311,-0.03627 0.07031,-0.04372 0.159605,-0.04372 0.09823,0 0.116742,0.0064 0.211726,0.0734 0.05725,0.04037 0.104083,0.07972 0.104083,0.08745 0,0.0077 0.112153,0.01413 0.24923,0.01424 0.137076,9.9e-5 0.277084,0.0048 0.311127,0.01044 0.06107,0.01011 0.06233,0.01206 0.09434,0.146433 0.05244,0.220102 0.0056,0.41557 -0.117596,0.490683 -0.04866,0.02967 -0.08879,0.03424 -0.301338,0.03429 l -0.2452,4.9e-5 -0.104596,0.0788 -0.104594,0.0788 -0.131174,-0.0082 c -0.07214,-0.0045 -0.145411,-0.0085 -0.162812,-0.0088 -0.0174,-3.48e-4 -0.02733,-0.0076 -0.02205,-0.01611 0.02342,-0.03789 -0.04538,-0.05813 -0.17531,-0.05157 -0.112939,0.0057 -0.138255,0.01281 -0.16552,0.04648 -0.0318,0.03927 -0.03673,0.03972 -0.407682,0.03706 l -0.375491,-0.0027 -0.01051,-0.04187 c -0.01026,-0.04088 -0.01493,-0.04188 -0.195809,-0.04188 -0.181197,0 -0.19308,0.0026 -0.537476,0.115622 -0.193702,0.06359 -0.358522,0.121482 -0.36627,0.128644 -0.02269,0.02097 0.0044,0.09719 0.05482,0.15436 0.04044,0.04584 0.06167,0.05414 0.158017,0.0618 l 0.1113,0.0088 0.0269,-0.06848 c 0.02233,-0.05685 0.03518,-0.06848 0.07569,-0.06848 0.02683,0 0.05365,-0.0079 0.05959,-0.01749 0.01887,-0.03054 0.113844,-0.02051 0.124254,0.01312 0.0052,0.01683 0.02058,0.05618 0.03415,0.08745 0.02387,0.05499 0.02806,0.05684 0.128706,0.05684 0.09487,0 0.107217,-0.0045 0.140201,-0.0508 0.01989,-0.02794 0.03712,-0.08106 0.03827,-0.118056 l 0.0021,-0.06726 0.01778,0.07391 c 0.01885,0.07833 0.07397,0.117304 0.102184,0.07225 0.0091,-0.01459 0.04701,-0.02373 0.09835,-0.02373 h 0.08349 l 0.01876,-0.104939 0.01876,-0.104939 0.0086,0.109072 c 0.01185,0.150171 0.05555,0.196999 0.183855,0.196999 0.08986,0 0.09308,-0.0017 0.10727,-0.05684 0.01249,-0.04855 0.02341,-0.05766 0.07483,-0.06246 0.03311,-0.0031 0.06768,-0.01293 0.07682,-0.02186 0.0091,-0.0089 0.04259,-0.01624 0.07433,-0.01624 0.04652,0 0.05772,0.007 0.05772,0.03585 0,0.01972 0.01201,0.05907 0.02668,0.08745 0.02536,0.04905 0.03226,0.0516 0.139469,0.0516 0.107205,0 0.114104,-0.0026 0.139468,-0.0516 0.01468,-0.02838 0.02762,-0.08938 0.02875,-0.135546 l 0.0021,-0.08394 0.01789,0.08745 c 0.0098,0.0481 0.02662,0.09323 0.03728,0.100298 0.03194,0.02116 0.07636,0.01513 0.105844,-0.01435 0.01999,-0.01999 0.04597,-0.02482 0.09307,-0.0173 0.03594,0.0057 0.07455,0.0044 0.08579,-0.003 0.01125,-0.0074 0.02744,-0.06061 0.03597,-0.118242 l 0.01552,-0.104776 0.01371,0.122428 c 0.01736,0.155068 0.05426,0.201132 0.161127,0.201132 0.06929,0 0.07608,-0.0043 0.09666,-0.06121 0.02062,-0.05703 0.02727,-0.06121 0.09733,-0.06121 0.04136,0 0.07519,-0.0079 0.07519,-0.01749 0,-0.0096 0.02669,-0.01749 0.05932,-0.01749 0.04932,0 0.06124,0.0077 0.07075,0.04555 0.02379,0.09479 0.06108,0.129351 0.139537,0.129351 0.09122,0 0.11484,-0.02289 0.1164,-0.112808 6.84e-4,-0.03896 0.0073,-0.08632 0.01468,-0.105237 0.0105,-0.02687 0.01566,-0.01794 0.02353,0.0408 0.0055,0.04136 0.01519,0.08031 0.02143,0.08655 0.01972,0.01972 0.152383,0.0086 0.166315,-0.01395 0.0091,-0.01472 0.03553,-0.01783 0.08308,-0.0098 0.08205,0.01386 0.126256,-0.01797 0.128205,-0.0923 6.85e-4,-0.02577 0.0074,-0.06259 0.01493,-0.08183 0.0099,-0.02519 0.01719,-0.0032 0.02617,0.0787 0.01451,0.132349 0.0633,0.211553 0.111566,0.181105 0.01592,-0.01004 0.03338,-0.03719 0.03879,-0.06033 0.0079,-0.03369 0.02275,-0.04315 0.07473,-0.0475 0.03748,-0.0031 0.0649,0.0024 0.0649,0.01312 0,0.0102 0.01181,0.01855 0.02623,0.01855 0.01457,0 0.02623,-0.01555 0.02623,-0.03498 0,-0.02789 0.01152,-0.0349 0.05684,-0.03457 0.05126,3.47e-4 0.0606,0.009 0.09508,0.08745 l 0.03824,0.08704 h 0.08552 c 0.0686,0 0.09364,-0.0086 0.12659,-0.04372 0.05302,-0.05643 0.139919,-0.0609 0.139919,-0.0072 0,0.03514 0.0071,0.0363 0.188015,0.03061 l 0.188015,-0.0059 0.09439,-0.07512 c 0.09903,-0.07882 0.146178,-0.08777 0.155852,-0.02962 0.0032,0.01913 0.03803,0.103645 0.07743,0.187814 0.06951,0.148475 0.07343,0.153036 0.131308,0.153036 0.04297,0 0.07434,0.01468 0.112127,0.05247 0.02886,0.02886 0.06957,0.05259 0.09048,0.05274 0.05833,3.97e-4 0.07637,0.01877 0.126898,0.129143 0.04187,0.09145 0.04555,0.115071 0.03538,0.226819 -0.01632,0.179361 -0.05489,0.310706 -0.101849,0.346847 -0.02862,0.02203 -0.07252,0.03083 -0.155163,0.03111 -0.105114,3.47e-4 -0.116963,0.0042 -0.134748,0.04319 -0.01073,0.02354 -0.04116,0.05699 -0.06763,0.07433 -0.04581,0.03001 -0.17979,0.03167 -2.7773,0.03441 l -2.729169,0.0029 -0.848255,0.0889 -0.848254,0.0889 -0.64275,3.6e-5 -0.64275,4.9e-5 v 0.06996 0.06996 h -0.120532 c -0.113981,0 -0.121129,-0.0024 -0.131506,-0.04372 -0.0094,-0.03744 -0.02094,-0.04372 -0.08027,-0.04372 -0.05933,0 -0.07087,0.0063 -0.08027,0.04372 -0.01027,0.04093 -0.01811,0.04372 -0.122762,0.04372 -0.10758,0 -0.111787,-0.0016 -0.111787,-0.04372 0,-0.04081 -0.0058,-0.04372 -0.08745,-0.04372 -0.08206,0 -0.08745,0.0027 -0.08745,0.04456 0,0.04355 -0.0025,0.04444 -0.109311,0.03935 -0.09818,-0.0047 -0.10988,-0.0092 -0.1149,-0.04456 -0.0049,-0.03473 -0.01571,-0.03935 -0.09182,-0.03935 -0.08032,0 -0.08623,0.003 -0.08623,0.04372 0,0.04172 -0.0047,0.04372 -0.103722,0.04372 -0.09425,0 -0.104233,-0.0036 -0.109311,-0.03935 -0.0049,-0.03428 -0.01742,-0.04003 -0.09741,-0.04464 -0.0886,-0.0051 -0.09182,-0.0037 -0.09182,0.04023 0,0.04435 -0.0026,0.04538 -0.100566,0.04027 -0.08909,-0.0046 -0.101204,-0.0097 -0.106155,-0.0446 -0.005,-0.03527 -0.0154,-0.03935 -0.100233,-0.03935 -0.08637,0 -0.0956,0.0038 -0.105619,0.04372 -0.01001,0.03988 -0.01927,0.04372 -0.105272,0.04372 h -0.0943 v -0.14124 -0.14124 l -0.240484,0.009 c -0.344637,0.01291 -0.509438,0.0343 -0.59028,0.07661 -0.03974,0.0208 -0.282359,0.250688 -0.561599,0.532122 -0.399864,0.403007 -0.496973,0.510197 -0.520206,0.574209 -0.01571,0.04329 -0.12278,0.366184 -0.237931,0.717547 -0.192715,0.588036 -0.210276,0.652716 -0.220817,0.813276 -0.0181,0.275665 -0.100214,0.414518 -0.260895,0.441155 -0.07758,0.01286 -0.09732,0.0091 -0.174898,-0.03318 z m 0.143267,-0.498743 c 0.0307,-0.01452 0.06656,-0.04342 0.07969,-0.06424 0.07124,-0.112926 0.337887,-0.759339 0.416015,-1.008529 0.122263,-0.389959 0.171082,-0.485405 0.336933,-0.658735 l 0.136626,-0.142787 0.130207,-0.324943 c 0.133154,-0.332298 0.149046,-0.405845 0.111171,-0.514495 -0.02588,-0.07424 -0.07268,-0.09894 -0.498556,-0.26312 l -0.368929,-0.142225 -0.181999,9.12e-4 -0.181999,9.12e-4 0.09187,0.03531 c 0.05053,0.01942 0.100114,0.05071 0.110189,0.06954 0.01008,0.01883 0.02704,0.02884 0.03769,0.02226 0.01372,-0.0085 0.0162,0.01477 0.0085,0.07976 -0.0085,0.07162 -0.02433,0.106635 -0.07227,0.159706 -0.03378,0.03739 -0.0664,0.08785 -0.0725,0.112141 -0.0061,0.02429 -0.01686,0.04417 -0.02392,0.04417 -0.0071,0 -0.01283,0.05509 -0.01283,0.122429 0,0.06734 0.0073,0.122428 0.01619,0.122428 0.0089,0 0.01315,0.0091 0.0095,0.02021 -0.0037,0.01111 0.01495,0.04394 0.04145,0.07296 0.0265,0.02901 0.04415,0.05927 0.03923,0.06724 -0.0049,0.008 -6.21e-4,0.01449 0.0096,0.01449 0.01019,0 0.01852,0.01443 0.01852,0.03206 0,0.05223 -0.05,0.0365 -0.06232,-0.01961 -0.0064,-0.02934 -0.02542,-0.05535 -0.04389,-0.06019 -0.0179,-0.0047 -0.03667,-0.0215 -0.04171,-0.03739 -0.005,-0.01588 -0.02634,-0.03668 -0.04734,-0.04621 -0.021,-0.0095 -0.04022,-0.03229 -0.04272,-0.05056 -0.0025,-0.01828 -0.01491,-0.0398 -0.02757,-0.04783 -0.01266,-0.008 -0.01692,-0.01472 -0.0095,-0.01487 0.0075,-1.49e-4 0.0029,-0.02191 -0.01003,-0.04837 -0.01298,-0.02645 -0.02055,-0.06146 -0.01683,-0.07779 0.01229,-0.05398 -0.02839,-0.104087 -0.0797,-0.09816 -0.04375,0.0051 -0.04729,0.0119 -0.05235,0.101233 -0.0061,0.107618 -0.01939,0.12216 -0.112016,0.122542 -0.04689,1.98e-4 -0.07018,0.01 -0.08369,0.03525 -0.01539,0.02875 -0.03662,0.03498 -0.119269,0.03498 -0.09829,0 -0.102557,0.0021 -0.189914,0.09182 -0.07978,0.08197 -0.0945,0.109649 -0.137195,0.257974 -0.04753,0.165119 -0.260735,0.743415 -0.382112,1.036441 -0.128127,0.309322 -0.16373,0.512055 -0.09957,0.566989 0.07901,0.06765 0.216186,0.106159 0.420857,0.11814 0.110623,0.0065 0.24368,0.02374 0.295681,0.03836 0.09495,0.0267 0.230785,0.116233 0.27747,0.182885 0.02711,0.03871 0.08273,0.06567 0.17891,0.08672 0.07061,0.01546 0.12573,0.0074 0.204481,-0.02982 z m -2.501251,-0.90224 c 0.09113,-0.143215 0.124505,-0.234368 0.205156,-0.560377 0.04471,-0.18075 0.108142,-0.403735 0.140948,-0.495522 0.05662,-0.158406 0.06846,-0.176365 0.232999,-0.353465 0.180606,-0.194389 0.213377,-0.243463 0.267369,-0.400394 0.0276,-0.08021 0.03,-0.114098 0.01594,-0.224975 -0.01818,-0.143395 -0.04031,-0.199588 -0.07859,-0.199588 -0.0138,0 -0.06492,-0.05903 -0.113601,-0.131173 -0.04868,-0.07215 -0.09851,-0.131174 -0.110734,-0.131174 -0.01432,0 -0.02898,0.04691 -0.04124,0.132009 -0.02214,0.153656 -0.0566,0.205347 -0.125949,0.188921 -0.107418,-0.02544 -0.127887,-0.0958 -0.08903,-0.306021 0.01408,-0.07617 0.01249,-0.109248 -0.0076,-0.157271 l -0.02541,-0.06082 0.06005,-0.03234 c 0.0693,-0.03732 0.0721,-0.05058 0.02646,-0.125432 l -0.03346,-0.05488 -0.33813,-0.0108 c -0.185972,-0.0059 -0.607291,-0.01273 -0.936264,-0.01508 -0.535051,-0.0038 -0.598902,-0.0013 -0.605423,0.02361 -0.0096,0.03674 -0.128011,0.05047 -0.43698,0.05066 -0.261257,1.48e-4 -0.29892,0.0099 -0.382116,0.09916 -0.04953,0.05312 -0.119847,0.17592 -0.119847,0.209308 0,0.0334 -0.05213,0.04323 -0.164633,0.03104 -0.07739,-0.0084 -0.204357,-0.05317 -0.464999,-0.164 -0.646518,-0.274919 -0.628581,-0.269098 -0.792486,-0.257208 -0.108097,0.0078 -0.246916,0.04229 -0.566088,0.140491 -0.232579,0.07156 -0.452983,0.147027 -0.489788,0.167712 -0.06355,0.03572 -0.145473,0.146996 -0.145473,0.197599 0,0.01475 0.08954,0.05253 0.240484,0.101474 0.327772,0.106281 0.347378,0.126144 0.48294,0.489236 0.05973,0.159968 0.119196,0.289858 0.145274,0.317291 0.03975,0.04181 0.116676,0.234313 0.261632,0.654698 l 0.04275,0.123983 1.481626,0.01197 c 1.427023,0.01153 1.485494,0.01328 1.586566,0.04756 0.103629,0.03514 0.10843,0.03981 0.384775,0.37442 0.345651,0.418522 0.405205,0.457114 0.492851,0.31938 z m 2.524137,-1.922409 c 0,-0.0092 0.0065,-0.01266 0.01435,-0.0078 0.02193,0.01355 0.125565,-0.05542 0.125565,-0.08356 0,-0.03445 -0.178053,-0.133764 -0.203292,-0.113391 -0.01081,0.0087 -0.02508,0.05679 -0.03171,0.106804 -0.0098,0.07399 -0.0066,0.0949 0.01698,0.112177 0.03071,0.02246 0.07811,0.01381 0.07811,-0.01425 z m 3.319522,-0.150132 0.0052,-0.109311 h 0.200299 c 0.16157,0 0.200298,-0.0048 0.200298,-0.02489 0,-0.03478 0.105017,-0.136231 0.130787,-0.126342 0.01166,0.0045 0.05193,-0.0056 0.0895,-0.02241 0.03756,-0.0168 0.12339,-0.04879 0.190726,-0.07109 0.108669,-0.03599 0.143559,-0.06017 0.310443,-0.215122 0.103409,-0.09601 0.188015,-0.18827 0.188015,-0.205014 0,-0.01674 -0.01246,-0.04078 -0.02769,-0.05342 -0.02322,-0.01927 -0.11149,-0.0067 -0.546727,0.07764 -0.583004,0.113018 -0.933673,0.154324 -1.248831,0.147102 -0.20319,-0.0047 -0.215209,-0.007 -0.231577,-0.04426 -0.02997,-0.06831 -0.05459,-0.04333 -0.08748,0.08875 l -0.0319,0.128101 0.14823,0.226067 c 0.08153,0.124337 0.161205,0.236655 0.177062,0.249596 0.05422,0.04424 0.194342,0.07017 0.362284,0.06703 l 0.166153,-0.0031 z m -5.394237,-0.192387 c 0.0049,-0.01683 0.01421,-0.06799 0.02066,-0.113684 0.0091,-0.06417 0.0063,-0.08313 -0.01212,-0.08331 -0.01312,-1.49e-4 -0.04156,-0.005 -0.0632,-0.01078 -0.03811,-0.01021 -0.03935,-0.0066 -0.03935,0.113923 0,0.120187 0.0015,0.124468 0.04255,0.124468 0.02546,0 0.04613,-0.01229 0.05147,-0.03061 z m 7.15987,-0.50511 c 0.05364,-0.01438 0.04941,-0.06024 -0.01087,-0.117994 -0.04191,-0.04015 -0.06289,-0.0472 -0.126801,-0.04262 -0.06397,0.0046 -0.0775,0.01194 -0.08215,0.04465 -0.0036,0.02567 0.01142,0.0541 0.04372,0.08252 0.04924,0.04332 0.101909,0.05332 0.176089,0.03344 z m 2.397319,-0.264441 c 0.0043,-0.03027 -0.003,-0.03935 -0.03176,-0.03935 -0.05262,0 -0.105006,0.03137 -0.105006,0.06289 0,0.02013 0.0161,0.02534 0.06559,0.02125 0.05268,-0.0044 0.06669,-0.01317 0.07118,-0.04478 z m 0.143073,-0.03922 c 0,-0.0096 0.03692,-0.01547 0.08308,-0.01312 0.08195,0.0042 0.08315,0.0035 0.08856,-0.0526 0.003,-0.03126 -0.0014,-0.05684 -0.0097,-0.05684 -0.0084,0 -0.06395,0.01646 -0.123536,0.03659 -0.09898,0.03342 -0.127693,0.06065 -0.09668,0.09167 0.01782,0.01783 0.0583,0.01387 0.0583,-0.0057 z m 0.542183,-1.52092 c 0,-0.01879 -0.0091,-0.0542 -0.0203,-0.0787 -0.01926,-0.04227 -0.02737,-0.04455 -0.158657,-0.04455 -0.09659,0 -0.145904,0.0075 -0.163346,0.02499 -0.04017,0.04017 -0.0291,0.06236 0.03186,0.06387 0.03126,7.68e-4 0.09619,0.01553 0.144291,0.0328 0.121529,0.04363 0.166152,0.04406 0.166152,0.0016 z M 61.413606,67.877398 c 0.197027,-0.03821 0.403747,-0.06674 0.52269,-0.07216 0.142458,-0.0065 0.19676,-0.01507 0.19676,-0.03112 0,-0.03736 -0.0452,-0.04338 -0.329364,-0.04388 -0.264468,-4.46e-4 -0.286703,0.0024 -0.636947,0.08194 -0.246472,0.05598 -0.362913,0.0898 -0.362913,0.105424 0,0.04449 0.262194,0.0272 0.609774,-0.0402 z"
       style="fill:#ffffff;stroke-width:0.01748979;fill-opacity:1" />
  </g>
</svg>
