<?xml version="1.0" encoding="UTF-8" standalone="no"?>
<svg
   xmlns:dc="http://purl.org/dc/elements/1.1/"
   xmlns:cc="http://creativecommons.org/ns#"
   xmlns:rdf="http://www.w3.org/1999/02/22-rdf-syntax-ns#"
   xmlns:svg="http://www.w3.org/2000/svg"
   xmlns="http://www.w3.org/2000/svg"
   id="svg8"
   version="1.1"
   viewBox="0 0 26.773054 8.4667808"
   height="32.000431"
   width="101.1895">
  <defs
     id="defs2" />
  <metadata
     id="metadata5">
    <rdf:RDF>
      <cc:Work
         rdf:about="">
        <dc:format>image/svg+xml</dc:format>
        <dc:type
           rdf:resource="http://purl.org/dc/dcmitype/StillImage" />
        <dc:title></dc:title>
      </cc:Work>
    </rdf:RDF>
  </metadata>
  <g
     transform="translate(61.564937,-73.139149)"
     id="layer1">
    <path
       id="path826"
       d="m -45.898983,81.287578 c -0.03264,-0.04415 -0.07605,-0.06352 -0.245217,-0.109415 l -0.205555,-0.05577 -0.295922,-0.37266 c -0.162757,-0.204963 -0.403362,-0.508946 -0.534678,-0.675519 -0.131316,-0.166573 -0.446004,-0.565513 -0.699305,-0.886532 -0.535446,-0.678593 -0.524479,-0.65439 -0.36175,-0.798355 l 0.09955,-0.08807 -0.08491,-0.106071 c -0.0467,-0.05834 -0.09549,-0.106474 -0.108425,-0.106969 -0.01294,-4.86e-4 -0.11141,0.08407 -0.21883,0.187926 -0.180037,0.17406 -0.20492,0.207288 -0.318199,0.424921 l -0.122887,0.236096 0.01921,0.138984 c 0.01612,0.116604 0.01325,0.166916 -0.01779,0.312441 l -0.037,0.173457 -0.704417,0.713321 -0.704417,0.713321 -0.271945,0.0881 -0.271945,0.0881 -0.426734,0.01386 -0.426734,0.01386 -0.137496,-0.05371 c -0.136042,-0.05314 -0.138385,-0.05524 -0.221626,-0.199559 l -0.08413,-0.145856 -0.284945,-0.162382 c -0.2365,-0.134775 -0.300822,-0.163225 -0.378336,-0.167339 -0.08483,-0.0045 -0.09817,7.23e-4 -0.145546,0.05703 -0.06204,0.07373 -0.103669,0.06988 -0.230632,-0.02129 l -0.08238,-0.05916 -0.04276,0.0391 c -0.09039,0.08264 -0.168585,0.107116 -0.347219,0.108664 -0.326943,0.0028 -0.353554,-0.0062 -0.612023,-0.207455 -0.225547,-0.175633 -0.232246,-0.183087 -0.405487,-0.451202 -0.175578,-0.271731 -0.176747,-0.273015 -0.35875,-0.394131 -0.162069,-0.10785 -0.225805,-0.13595 -0.566889,-0.249936 l -0.384291,-0.128424 -0.586921,0.399885 c -0.322807,0.219937 -0.651143,0.430961 -0.729637,0.468943 l -0.142715,0.06906 -0.689791,0.0058 c -0.478292,0.0041 -0.689791,-3.78e-4 -0.689791,-0.01439 0,-0.01346 -0.09555,-0.01978 -0.285202,-0.01887 -0.314899,0.0015 -0.292279,0.0086 -0.46036,-0.143832 l -0.104932,-0.09514 -0.02264,-0.398926 c -0.01432,-0.252217 -0.05437,-0.626606 -0.108904,-1.018036 -0.08111,-0.582188 -0.08554,-0.635566 -0.07417,-0.895027 l 0.01209,-0.275916 0.08713,-0.133201 c 0.04792,-0.07326 0.136633,-0.198492 0.197145,-0.278293 0.0815,-0.107484 0.104471,-0.150641 0.08861,-0.166501 -0.014,-0.014 -0.12249,-0.02141 -0.313494,-0.02141 -0.32604,0 -0.342913,-0.0046 -0.511013,-0.140388 l -0.09713,-0.07844 -0.129523,-0.542318 c -0.07124,-0.298275 -0.142315,-0.557304 -0.157948,-0.575619 -0.02471,-0.02895 -0.0654,-0.0333 -0.311172,-0.0333 -0.26095,0 -0.287844,-0.0033 -0.348846,-0.04282 -0.03635,-0.02355 -0.0662,-0.0518 -0.06633,-0.06279 -1.08e-4,-0.01099 0.03889,-0.07374 0.0867,-0.139451 l 0.08693,-0.119473 0.345969,0.0074 0.34597,0.0074 1.244105,0.42869 1.244105,0.428691 0.125962,-0.05112 c 0.06928,-0.02811 0.187976,-0.07168 0.263772,-0.09681 l 0.137811,-0.04569 -0.0114,-0.114173 c -0.0126,-0.126238 0.025,-0.290481 0.09427,-0.411792 l 0.03956,-0.06928 0.248148,-0.01259 c 0.236534,-0.012 0.322766,-0.0037 1.842405,0.178258 1.737072,0.207945 1.669981,0.195126 1.706762,0.326108 l 0.01904,0.06779 1.489223,-0.0068 1.489224,-0.0068 0.127058,-0.04789 c 0.165889,-0.06253 0.193161,-0.09372 0.0976,-0.111651 -0.0392,-0.0074 -0.108885,-0.03541 -0.154855,-0.06235 -0.08216,-0.04815 -0.08342,-0.05042 -0.07409,-0.133209 0.01071,-0.09503 0.03156,-0.123841 0.09291,-0.12836 0.02332,-0.0017 0.04559,-0.01268 0.04948,-0.02435 0.0068,-0.02028 -0.02368,-0.03115 -0.229112,-0.08184 -0.116947,-0.02886 -0.135445,-0.06293 -0.109721,-0.202086 0.02252,-0.121803 0.05894,-0.187803 0.113138,-0.205004 0.02041,-0.0065 0.100475,0.0045 0.177924,0.0243 0.07745,0.01984 0.165875,0.03252 0.196501,0.02817 0.08321,-0.0118 0.574167,0.115362 0.69389,0.179729 0.05715,0.03073 0.114467,0.07739 0.127365,0.103701 0.02014,0.04109 0.05283,0.05482 0.231822,0.09739 0.194822,0.04633 0.468635,0.161544 0.500827,0.210732 0.01554,0.02374 0.02011,-0.01429 0.01503,-0.125083 -0.0048,-0.105743 0.04823,-0.19743 0.153965,-0.265942 0.05112,-0.03312 0.09295,-0.06709 0.09295,-0.07548 0,-0.0084 0.06636,-0.03621 0.147472,-0.06182 l 0.147473,-0.04657 -0.08563,-0.0038 c -0.0471,-0.0021 -0.09205,-0.0028 -0.0999,-0.0016 -0.0078,0.0012 -0.01427,-0.104782 -0.01427,-0.235605 v -0.237859 l -0.176015,-6.31e-4 c -0.207942,-7.5e-4 -0.243305,-0.02059 -0.277296,-0.155581 -0.04284,-0.170145 -0.04539,-0.167274 0.148186,-0.167274 h 0.170593 l 0.0054,-0.195044 0.0054,-0.195044 0.05233,-0.006 0.05233,-0.006 v 0.134102 c 0,0.124046 0.0032,0.134694 0.04281,0.141991 0.02355,0.0043 0.09471,0.01735 0.158133,0.02891 0.06342,0.01156 0.211403,0.02102 0.328842,0.02102 0.172246,0 0.215642,-0.0055 0.224478,-0.02854 0.01128,-0.02941 0.144105,-0.04041 0.205126,-0.01699 0.03795,0.01456 0.04141,0.121651 0.0039,0.121651 -0.02731,0 -0.04995,0.07921 -0.04995,0.17476 0,0.03238 0.008,0.05089 0.01903,0.04407 0.01047,-0.0065 0.01903,-0.02451 0.01903,-0.04009 0,-0.01558 0.02355,-0.04906 0.05233,-0.07439 0.05133,-0.04518 0.05915,-0.04607 0.409525,-0.04666 l 0.357196,-6.04e-4 0.02168,0.04757 c 0.01571,0.03448 0.03654,0.04757 0.07571,0.04757 0.05246,0 0.05404,-0.0029 0.05432,-0.0999 4e-4,-0.136126 0.01332,-0.150976 0.125237,-0.143877 l 0.0933,0.0059 0.0057,0.118929 0.0057,0.11893 h 0.06616 c 0.05374,0 0.0697,-0.0093 0.08497,-0.04947 l 0.01881,-0.04947 0.347023,0.01321 c 0.325701,0.0124 0.351526,0.01612 0.420304,0.06053 0.07435,0.048 0.08016,0.07079 0.04147,0.162714 -0.01221,0.02902 -0.002,0.03235 0.08794,0.02854 0.07904,-0.0033 0.106044,-0.01262 0.120923,-0.0415 0.01054,-0.02045 0.05477,-0.06435 0.0983,-0.09755 l 0.07914,-0.06036 0.310816,0.05427 c 0.405666,0.07084 0.394004,0.06739 0.407282,0.120294 0.0099,0.03933 0.07843,0.08033 0.09935,0.05941 0.004,-0.004 0.01188,-0.04429 0.01761,-0.08963 0.01473,-0.116573 0.0463,-0.146897 0.135869,-0.130518 0.107821,0.01972 0.112859,0.02644 0.09611,0.128268 -0.0221,0.134348 -0.02204,0.13456 0.04025,0.148241 0.04579,0.01006 0.0645,0.004 0.09188,-0.02983 l 0.03438,-0.04246 0.340734,0.06076 c 0.343332,0.06123 0.342921,0.06108 0.459388,0.167063 0.03585,0.03263 0.03055,0.05579 -0.02228,0.09735 -0.02581,0.0203 -0.04151,0.04233 -0.03489,0.04895 0.03047,0.03047 0.08431,0.0041 0.188173,-0.09233 l 0.112469,-0.104372 0.334443,-2.7e-4 c 0.332303,-2.69e-4 0.334729,1.9e-5 0.379134,0.04729 0.07447,0.07927 0.102175,0.06361 0.08719,-0.04931 -0.01691,-0.127466 0.0036,-0.15049 0.133964,-0.15049 h 0.102329 v 0.06422 c 0,0.129406 0.02024,0.183151 0.06898,0.183151 0.02486,0 0.04519,-0.008 0.04519,-0.01767 0,-0.0097 0.01346,-0.03113 0.0299,-0.04757 0.02504,-0.02504 0.08744,-0.0299 0.383661,-0.0299 0.344572,0 0.355899,0.0013 0.436299,0.04837 0.09343,0.05475 0.104479,0.09468 0.03497,0.126346 -0.0818,0.03727 -0.05097,0.07215 0.05062,0.05724 0.02972,-0.0044 0.05404,-0.01877 0.05404,-0.03202 0,-0.02536 0.134904,-0.143035 0.199802,-0.174287 0.02261,-0.01089 0.17082,-0.01402 0.365126,-0.0077 l 0.327069,0.01061 0.05826,0.05589 0.05826,0.05589 v -0.11737 c 0,-0.10726 0.0038,-0.118335 0.04463,-0.128571 0.02455,-0.0062 0.07806,-0.0085 0.118929,-0.0051 l 0.0743,0.0061 0.0057,0.11893 c 0.0049,0.103339 0.01053,0.118929 0.04281,0.118929 0.02043,0 0.05537,-0.01822 0.07764,-0.04049 0.0391,-0.0391 0.05267,-0.04019 0.394846,-0.03156 0.350497,0.0088 0.355332,0.0095 0.444737,0.06414 0.10038,0.06131 0.116339,0.111444 0.04146,0.130237 -0.02691,0.0068 -0.04542,0.02267 -0.04113,0.03536 0.01036,0.03068 0.21867,0.0306 0.259228,-1.08e-4 0.01684,-0.01275 0.04967,-0.02345 0.07295,-0.02379 0.02328,-3.24e-4 0.106987,-0.02629 0.186025,-0.05769 0.0947,-0.03762 0.177361,-0.05709 0.242397,-0.05709 0.08275,0 0.104951,-0.0078 0.137462,-0.04824 0.03009,-0.03743 0.06649,-0.05251 0.162459,-0.06729 0.139159,-0.02142 1.110894,-0.01472 1.171181,0.0081 0.0314,0.01188 0.07756,-0.0169 0.237632,-0.148176 0.151621,-0.12434 0.22703,-0.172356 0.318478,-0.202787 0.105922,-0.03525 0.12704,-0.03691 0.182105,-0.01432 0.133184,0.05465 0.234249,0.172907 0.212122,0.248213 -0.03998,0.136079 -0.09252,0.204279 -0.266592,0.346044 l -0.181117,0.147506 0.04317,0.05472 c 0.02375,0.0301 0.04939,0.05519 0.05699,0.05577 0.0076,5.77e-4 0.10093,-0.06314 0.207409,-0.141589 0.12124,-0.08933 0.232458,-0.154891 0.297571,-0.175417 l 0.103972,-0.03277 0.03593,0.04438 0.03594,0.04438 -0.112075,0.126282 c -0.06164,0.06946 -0.128022,0.14041 -0.147514,0.157678 -0.06419,0.05686 -0.23229,0.147117 -0.315369,0.169331 -0.107712,0.0288 -0.129192,0.04897 -0.129192,0.121286 0,0.115738 -0.100903,0.146919 -0.158716,0.04905 -0.03267,-0.0553 -0.03816,-0.05709 -0.175361,-0.05709 -0.156526,0 -0.159128,0.0029 -0.130221,0.147486 l 0.01142,0.0571 0.202888,0.0084 c 0.169795,0.007 0.220506,0.01669 0.310891,0.05945 0.0594,0.0281 0.116731,0.05109 0.127404,0.05109 0.04316,0 0.113956,0.161097 0.117079,0.266402 0.0057,0.191246 -0.106188,0.37684 -0.22927,0.380406 -0.02616,7.61e-4 -0.06325,0.01326 -0.08242,0.02779 -0.03305,0.02505 -0.03256,0.02674 0.0095,0.03269 0.03661,0.0052 0.04957,0.02616 0.07442,0.120456 l 0.03009,0.114172 0.112656,0.01041 c 0.172144,0.0159 0.264267,0.07859 0.502581,0.34197 0.129353,0.142963 0.129417,0.143091 0.09424,0.186535 -0.02409,0.02975 -0.06699,0.0485 -0.135868,0.05939 l -0.100666,0.01591 -0.283874,-0.169148 c -0.156133,-0.09303 -0.291058,-0.169149 -0.299832,-0.169149 -0.05507,0 0.01583,0.06987 0.231699,0.228345 0.183198,0.134482 0.252214,0.196609 0.269525,0.242616 0.0128,0.03401 0.0292,0.06184 0.03644,0.06184 0.03078,0 0.03375,0.06385 0.0055,0.118447 -0.03636,0.07032 -0.08953,0.126602 -0.174752,0.184991 -0.06366,0.04362 -0.07397,0.04398 -0.250366,0.0087 -0.04106,-0.0082 -0.173968,-0.09436 -0.353672,-0.229247 l -0.287887,-0.216092 h -0.160252 -0.160254 l -0.121639,0.204558 c -0.0669,0.112508 -0.149855,0.239679 -0.184339,0.282605 -0.03819,0.04754 -0.05929,0.09217 -0.05398,0.114172 0.023,0.09531 0.06149,0.09231 -1.260073,0.09829 -0.677565,0.0031 -1.236649,0.01028 -1.242411,0.01605 -0.0058,0.0058 -0.01107,0.110404 -0.01179,0.232537 -7.22e-4,0.122133 -0.01224,0.267389 -0.0256,0.322791 l -0.02429,0.10073 -0.12597,-0.0056 -0.125968,-0.0056 -0.02656,-0.07611 c -0.01461,-0.04186 -0.03544,-0.100157 -0.0463,-0.129541 -0.01086,-0.02938 -0.08299,-0.108592 -0.160298,-0.176016 l -0.14056,-0.122589 h -0.25628 -0.256279 v -0.06427 c 0,-0.1003 -0.02464,-0.10759 -0.228344,-0.06755 -0.09943,0.01954 -0.253915,0.03579 -0.343311,0.03611 l -0.162537,5.71e-4 -0.05154,-0.105079 c -0.02834,-0.05779 -0.05153,-0.12151 -0.05153,-0.141593 0,-0.02008 -0.0089,-0.04202 -0.01979,-0.04874 -0.01283,-0.0079 -0.01545,0.0051 -0.0075,0.03693 l 0.01234,0.04917 -0.339823,0.0045 c -0.420743,0.0055 -0.517468,0.0026 -0.86051,-0.02619 -0.244522,-0.02052 -0.275087,-0.01978 -0.290125,0.0071 -0.01255,0.02243 -0.03572,0.0275 -0.09149,0.02002 l -0.07468,-0.01002 0.01019,0.07595 c 0.0064,0.04807 0.0019,0.08106 -0.01231,0.08986 -0.03481,0.02152 -0.248219,0.03651 -0.248547,0.01746 -1.51e-4,-0.0093 -0.0084,-0.02972 -0.01828,-0.04536 -0.0156,-0.02468 -0.0213,-0.02393 -0.04295,0.0057 -0.01682,0.02301 -0.06083,0.03784 -0.135009,0.04549 -0.101291,0.01045 -0.110899,0.0081 -0.120726,-0.02947 -0.01056,-0.04039 -0.01585,-0.04083 -0.489461,-0.04083 -0.455236,0 -0.480386,0.0019 -0.511369,0.03806 -0.02454,0.02866 -0.05613,0.03806 -0.127916,0.03806 -0.089,0 -0.09533,-0.0032 -0.09533,-0.04757 0,-0.04017 -0.0089,-0.04757 -0.05709,-0.04757 -0.04332,0 -0.05709,0.0087 -0.05709,0.03602 0,0.04436 -0.03569,0.05912 -0.142989,0.05912 -0.06659,0 -0.0852,-0.0076 -0.0951,-0.03878 -0.01209,-0.0381 -0.02126,-0.0386 -0.529329,-0.02836 -0.45392,0.0091 -0.519915,0.01431 -0.540729,0.04231 -0.01905,0.02563 -0.06642,0.03353 -0.241127,0.04021 l -0.217419,0.0083 -0.0062,-0.05467 -0.0062,-0.05467 -0.263414,-0.0053 c -0.162833,-0.0033 -0.260921,0.0017 -0.256887,0.013 0.0036,0.01007 0.448258,0.573637 0.988153,1.252375 l 0.981628,1.23407 0.01298,0.218141 c 0.01048,0.176119 0.02047,0.228385 0.05188,0.271317 0.03311,0.04527 0.0358,0.06225 0.01807,0.114173 -0.04498,0.13172 -0.517624,0.489142 -0.64683,0.489142 -0.0069,0 -0.03046,-0.02414 -0.05227,-0.05365 z m -5.200389,-0.39427 c 0.115476,-0.0068 0.223847,-0.02984 0.378841,-0.08051 l 0.217096,-0.07097 0.629681,-0.652296 c 0.59718,-0.618627 0.631819,-0.658406 0.671105,-0.770663 0.02278,-0.0651 0.04205,-0.141486 0.04281,-0.169743 0.0021,-0.07671 -0.142804,-0.395119 -0.213129,-0.468401 -0.03377,-0.03519 -0.100691,-0.09711 -0.148717,-0.137608 -0.08545,-0.07206 -0.09393,-0.07466 -0.396536,-0.121997 -0.390468,-0.06108 -0.381878,-0.06116 -0.38224,0.004 -1.51e-4,0.02878 -0.04335,0.146275 -0.09598,0.261099 -0.08813,0.192273 -0.09525,0.218537 -0.0901,0.332374 0.0046,0.101271 5.9e-5,0.124737 -0.02505,0.129875 -0.02219,0.0045 -0.04259,-0.02565 -0.0739,-0.109394 l -0.04326,-0.115663 0.05012,-0.186506 c 0.02757,-0.102579 0.05012,-0.201001 0.05012,-0.218718 0,-0.0455 -0.135363,-0.221468 -0.170563,-0.22172 -0.01608,-1.08e-4 -0.06002,-0.0053 -0.09765,-0.01153 l -0.06841,-0.01132 -0.01091,0.33754 c -0.01284,0.397498 -0.0145,0.401311 -0.160993,0.369894 -0.09474,-0.02032 -0.09905,-0.01928 -0.189844,0.04595 l -0.0929,0.06674 -0.02394,0.165583 c -0.02447,0.169246 -0.05948,0.264462 -0.102521,0.278856 -0.0133,0.0044 -0.084,-0.0073 -0.157108,-0.02608 -0.116884,-0.03004 -0.137968,-0.03086 -0.174748,-0.0068 -0.04728,0.03098 -0.05301,0.03848 -0.348454,0.456335 -0.118399,0.167452 -0.231701,0.317764 -0.251782,0.334026 -0.03468,0.02808 -0.02701,0.03589 0.152604,0.155481 0.169595,0.112917 0.196758,0.139217 0.263153,0.254795 0.06668,0.116068 0.08442,0.133159 0.178436,0.171903 0.10978,0.04524 0.160553,0.04639 0.684773,0.01546 z m -2.502275,-0.424806 c 0.132814,-0.06042 0.138638,-0.0827 0.04931,-0.188637 -0.04282,-0.05078 -0.07785,-0.09979 -0.07785,-0.108904 0,-0.0091 0.01872,-0.03651 0.04161,-0.06087 0.02499,-0.0266 0.03449,-0.05069 0.02379,-0.06031 -0.04343,-0.03901 -0.466876,-0.362994 -0.575536,-0.440343 -0.06603,-0.047 -0.281506,-0.207118 -0.478841,-0.355814 l -0.35879,-0.270356 -0.498841,0.05557 c -0.274362,0.03056 -0.501997,0.05873 -0.505854,0.06258 -0.0039,0.0039 0.147763,0.05746 0.336933,0.119114 0.307183,0.100118 0.364333,0.125674 0.534671,0.23909 0.190041,0.126534 0.191385,0.12798 0.374455,0.402755 0.171713,0.257728 0.197282,0.286666 0.390926,0.442442 0.189268,0.152258 0.216424,0.167867 0.313865,0.180411 0.199704,0.02571 0.349676,0.01987 0.430158,-0.01674 z m 0.301672,-1.24591 c 0.229227,-0.206499 0.351993,-0.27958 0.659278,-0.392457 0.229759,-0.0844 0.289674,-0.114693 0.358155,-0.181088 0.07391,-0.07166 0.08595,-0.09637 0.118838,-0.243992 l 0.0366,-0.164258 -0.05048,-0.08357 c -0.07934,-0.131346 -0.147985,-0.147649 -0.567771,-0.134837 -0.235505,0.0072 -0.404584,0.02295 -0.541177,0.05045 -0.181316,0.0365 -0.219473,0.05239 -0.437075,0.181974 -0.235231,0.140081 -0.439677,0.296363 -0.43908,0.33564 7.76e-4,0.05113 0.175528,0.400348 0.213688,0.42703 0.0434,0.03034 0.339315,0.285712 0.356866,0.307963 0.01357,0.01721 0.06072,0.03354 0.101871,0.0353 0.0194,8.25e-4 0.105028,-0.06134 0.190287,-0.138145 z m 5.776809,-1.402058 c 0.03598,-0.03075 0.06024,-0.06108 0.05393,-0.0674 -0.0063,-0.0063 -0.05886,-0.0056 -0.116776,0.0017 l -0.105297,0.01316 0.04067,0.05501 c 0.02237,0.03026 0.04549,0.05467 0.05137,0.05424 0.0059,-4.31e-4 0.04013,-0.02594 0.0761,-0.05669 z m -11.646758,-1.451467 c 0.03854,-0.06236 0.03857,-0.06461 0.0051,-0.361762 -0.0185,-0.164457 -0.04258,-0.307955 -0.05351,-0.318884 -0.01381,-0.01381 -0.05008,0.03326 -0.118901,0.154301 l -0.09903,0.174173 0.04048,0.183675 c 0.02226,0.101021 0.04391,0.194379 0.04811,0.207462 0.0042,0.01308 0.03718,0.02378 0.07328,0.02378 0.05373,0 0.07268,-0.01139 0.104427,-0.06275 z m -0.795812,-0.249383 0.1247,-0.212729 -0.03178,-0.125914 c -0.01748,-0.06925 -0.05063,-0.152387 -0.07367,-0.184743 -0.04147,-0.05824 -0.0436,-0.05883 -0.211853,-0.05883 -0.09348,0 -0.170057,0.0064 -0.170173,0.01427 -1.07e-4,0.0078 0.04056,0.205221 0.09039,0.438604 0.08434,0.395043 0.09257,0.421493 0.119139,0.3832 0.0157,-0.02262 0.08466,-0.136859 0.153244,-0.25386 z m 24.241561,0.121846 c 0.01982,-0.03704 0.01447,-0.03806 -0.199132,-0.03806 -0.120726,0 -0.2195,0.0069 -0.2195,0.01522 0,0.04536 0.05662,0.06089 0.221966,0.06089 0.156824,0 0.178548,-0.0042 0.196666,-0.03806 z m -2.671916,-0.275588 c 0.01692,-0.06743 0.127386,-0.132692 0.17839,-0.105396 0.02135,0.01143 0.03882,0.03332 0.03882,0.04865 0,0.01533 0.01713,0.02787 0.03806,0.02787 0.03363,0 0.03807,-0.01272 0.03816,-0.109415 2.16e-4,-0.126501 0.02811,-0.241296 0.07538,-0.309216 0.04191,-0.06021 0.062,-0.184786 0.03725,-0.23102 -0.014,-0.02615 -0.0405,-0.03538 -0.101566,-0.03538 -0.09514,0 -0.135119,-0.03459 -0.118142,-0.102234 0.01475,-0.05877 -0.0286,-0.09636 -0.09259,-0.0803 -0.0339,0.0085 -0.04782,0.02487 -0.04782,0.0562 0,0.03548 -0.01595,0.04902 -0.08087,0.06863 -0.04448,0.01344 -0.135899,0.02893 -0.203156,0.03443 l -0.122283,0.01 0.169855,0.08532 c 0.183589,0.09222 0.279124,0.161934 0.331643,0.241996 l 0.0334,0.05091 -0.11662,0.108379 c -0.07702,0.07157 -0.161601,0.127472 -0.24907,0.164599 l -0.132448,0.05622 0.06585,0.01328 c 0.03622,0.0073 0.09582,0.02151 0.13245,0.03155 0.101832,0.02793 0.112537,0.02579 0.125304,-0.02508 z m -10.474738,-0.536036 c -0.01071,-0.04027 -0.02407,-0.09577 -0.02967,-0.123353 -0.0116,-0.05707 -0.04167,-0.06665 -0.286483,-0.09131 -0.08373,-0.0084 -0.227487,-0.03357 -0.319468,-0.05587 -0.202283,-0.04903 -0.197197,-0.0489 -0.208492,-0.0057 -0.0072,0.02755 -0.02658,0.03438 -0.09261,0.03265 -0.07637,-0.002 -0.110982,0.01393 -0.111748,0.05144 -1.51e-4,0.0078 0.0859,0.01427 0.191247,0.01427 0.206041,0 0.24599,0.01237 0.318556,0.09861 0.02579,0.03064 0.05702,0.05183 0.06941,0.04707 0.01239,-0.0048 0.124692,0.01941 0.249557,0.05371 0.124865,0.03429 0.229762,0.05995 0.233103,0.05702 0.0033,-0.0029 -0.0027,-0.03828 -0.01341,-0.07854 z m 3.575213,-0.844871 c 0.02045,-0.01393 0.007,-0.01583 -0.04757,-0.0067 -0.0944,0.01581 -0.10959,0.02682 -0.03647,0.02643 0.03052,-1.62e-4 0.06834,-0.009 0.08404,-0.01973 z m -2.759162,-0.741122 c 0,-0.01047 -0.02569,-0.01903 -0.05709,-0.01903 -0.0314,0 -0.05709,0.0086 -0.05709,0.01903 0,0.01047 0.02569,0.01903 0.05709,0.01903 0.0314,0 0.05709,-0.0086 0.05709,-0.01903 z m 0.247373,0 c 0,-0.01047 -0.02569,-0.01903 -0.05709,-0.01903 -0.0314,0 -0.05709,0.0086 -0.05709,0.01903 0,0.01047 0.02569,0.01903 0.05709,0.01903 0.0314,0 0.05709,-0.0086 0.05709,-0.01903 z"
       style="fill:#ffffff;stroke-width:0.01902871;fill-opacity:1" />
  </g>
</svg>
