<?xml version="1.0" encoding="UTF-8" standalone="no"?>
<svg
   xmlns:dc="http://purl.org/dc/elements/1.1/"
   xmlns:cc="http://creativecommons.org/ns#"
   xmlns:rdf="http://www.w3.org/1999/02/22-rdf-syntax-ns#"
   xmlns:svg="http://www.w3.org/2000/svg"
   xmlns="http://www.w3.org/2000/svg"
   id="svg8"
   version="1.1"
   viewBox="0 0 21.857996 8.4666126"
   height="8.4666128mm"
   width="21.857996mm">
  <defs
     id="defs2" />
  <metadata
     id="metadata5">
    <rdf:RDF>
      <cc:Work
         rdf:about="">
        <dc:format>image/svg+xml</dc:format>
        <dc:type
           rdf:resource="http://purl.org/dc/dcmitype/StillImage" />
        <dc:title></dc:title>
      </cc:Work>
    </rdf:RDF>
  </metadata>
  <g
     transform="translate(55.723598,-30.164777)"
     id="layer1">
    <path
       id="path826"
       d="m -49.578715,38.624526 c -0.03659,-0.0039 -0.04755,-0.01226 -0.07333,-0.05625 -0.04554,-0.07771 -0.05108,-0.176965 -0.01514,-0.271044 l 0.02801,-0.07331 -0.04437,-0.19497 c -0.184063,-0.808869 -0.355312,-1.743132 -0.423425,-2.310022 -0.02261,-0.188155 -0.0411,-0.357431 -0.0411,-0.37617 0,-0.01874 -0.0042,-0.03407 -0.0093,-0.03407 -0.0051,0 -0.05432,0.04129 -0.109299,0.09176 -0.08415,0.07725 -0.108155,0.09299 -0.151746,0.09953 -0.0793,0.01189 -0.182924,-0.01721 -0.261426,-0.07342 l -0.06686,-0.04788 h -0.362684 c -0.199476,0 -0.379439,-0.0048 -0.399918,-0.01068 -0.05369,-0.0154 -0.623113,-0.01417 -1.893032,0.0041 l -1.113929,0.01601 -0.39075,-0.03333 c -0.214912,-0.01833 -0.444213,-0.03692 -0.509557,-0.04132 l -0.118807,-0.008 -0.07482,-0.0592 -0.07482,-0.0592 -0.01705,-0.08948 c -0.01644,-0.08627 -0.01485,-0.113438 0.04449,-0.758589 0.06001,-0.652432 0.06155,-0.679217 0.06196,-1.074443 l 4.41e-4,-0.405329 h -0.05657 -0.05657 l -0.0076,-0.10677 c -0.01264,-0.178088 -0.0088,-0.920428 0.0051,-0.995899 0.007,-0.03786 0.02266,-0.08832 0.03481,-0.112123 0.035,-0.0686 0.130531,-0.176434 0.22304,-0.251762 l 0.08519,-0.06936 0.460735,-0.01373 c 0.309532,-0.0092 1.372737,-0.01367 3.239725,-0.01354 l 2.77899,1.66e-4 v 0.03848 c 0,0.03299 0.0055,0.04048 0.03874,0.05249 0.05701,0.02062 0.06624,0.01769 0.06624,-0.02098 v -0.03499 h 0.32761 0.32761 l 0.01321,-0.03499 c 0.01188,-0.03146 0.0183,-0.03499 0.06375,-0.03499 0.04567,0 0.05171,0.0034 0.06274,0.03499 0.01697,0.04867 0.06119,0.04867 0.07815,0 0.01102,-0.03162 0.01707,-0.03499 0.06274,-0.03499 0.04544,0 0.05187,0.0035 0.06375,0.03499 0.01807,0.04786 0.05862,0.04786 0.0753,0 0.01099,-0.03153 0.01714,-0.03499 0.06213,-0.03499 0.04448,0 0.05151,0.0038 0.06443,0.03499 0.01974,0.04766 0.06009,0.04766 0.07808,0 0.01167,-0.03092 0.01869,-0.03499 0.0603,-0.03499 0.03254,0 0.05076,0.0063 0.05898,0.02041 0.0086,0.01482 0.01218,-0.01475 0.01296,-0.107893 5.9e-4,-0.07057 0.0049,-0.166956 0.0097,-0.214195 0.0083,-0.08283 0.01053,-0.08771 0.06275,-0.137054 l 0.05415,-0.05117 h 0.111489 0.111488 v -0.06613 c 0,-0.05192 -0.0075,-0.07945 -0.03499,-0.12813 -0.03947,-0.06994 -0.04481,-0.129329 -0.0175,-0.194695 0.0096,-0.02303 0.0175,-0.07311 0.0175,-0.11128 0,-0.10755 -0.0014,-0.106306 0.118061,-0.106306 h 0.103901 l 0.02311,0.03791 c 0.01351,0.02216 0.02313,0.05866 0.02316,0.08785 2.3e-5,0.03218 0.0059,0.05218 0.01649,0.05625 0.009,0.0035 0.01964,0.01905 0.02355,0.03463 0.0039,0.01557 0.01226,0.02832 0.01855,0.02832 0.0063,0 0.01144,0.02522 0.01144,0.05604 0,0.0412 -0.0086,0.06977 -0.03259,0.107893 -0.02709,0.0431 -0.03067,0.0572 -0.02122,0.08353 0.0066,0.01829 0.0249,0.03639 0.04339,0.04283 0.01761,0.0061 0.04034,0.02387 0.05052,0.03939 0.01017,0.01553 0.04751,0.04291 0.08297,0.06085 0.0677,0.03425 0.0922,0.06334 0.09253,0.109821 1.65e-4,0.02364 0.01369,0.03371 0.08767,0.06524 l 0.08748,0.03728 0.0032,0.15802 c 0.0028,0.137087 0.0059,0.159001 0.02333,0.16542 0.05002,0.01842 0.08249,0.04441 0.09589,0.07675 0.01392,0.03362 0.01746,0.03505 0.08676,0.03505 0.07108,0 0.07256,-6.56e-4 0.09171,-0.04083 0.01071,-0.02245 0.02678,-0.04082 0.03572,-0.04082 0.0089,0 0.02279,-0.0079 0.03078,-0.0175 0.008,-0.0096 0.02963,-0.0175 0.04809,-0.0175 0.03256,0 0.08022,-0.03465 0.08022,-0.05832 0,-0.0064 0.02278,-0.01166 0.05062,-0.01166 0.04267,0 0.0527,0.0046 0.0639,0.02916 0.01796,0.03942 0.06369,0.03942 0.08165,0 0.01098,-0.0241 0.02146,-0.02916 0.06044,-0.02916 0.03898,0 0.04946,0.0051 0.06044,0.02916 0.01767,0.03878 0.05974,0.03878 0.07741,0 0.01121,-0.02462 0.02121,-0.02916 0.06415,-0.02916 0.04294,0 0.05294,0.0045 0.06415,0.02916 0.01786,0.03919 0.04279,0.03678 0.06044,-0.0058 0.01361,-0.03284 0.01841,-0.03499 0.07825,-0.03499 0.06012,0 0.0645,0.002 0.07696,0.03499 0.01607,0.04259 0.0463,0.04533 0.06429,0.0058 0.01122,-0.02462 0.02121,-0.02916 0.06415,-0.02916 0.04294,0 0.05294,0.0045 0.06415,0.02916 0.01742,0.03822 0.05681,0.03822 0.07423,0 0.01122,-0.02462 0.02121,-0.02916 0.06415,-0.02916 0.04294,0 0.05294,0.0045 0.06415,0.02916 0.01767,0.03878 0.05974,0.03878 0.0774,0 0.01131,-0.02482 0.0211,-0.02916 0.0658,-0.02916 0.04629,0 0.05338,0.0035 0.05983,0.02916 0.0101,0.04024 0.05856,0.04024 0.0769,0 0.01109,-0.02433 0.02136,-0.02916 0.06203,-0.02916 0.04068,0 0.05094,0.0048 0.06203,0.02916 0.01796,0.03942 0.06369,0.03942 0.08165,0 0.01098,-0.0241 0.02146,-0.02916 0.06044,-0.02916 0.03898,0 0.04946,0.0051 0.06044,0.02916 0.01796,0.03942 0.06369,0.03942 0.08165,0 0.01109,-0.02433 0.02135,-0.02916 0.06203,-0.02916 0.04068,0 0.05094,0.0048 0.06203,0.02916 0.01834,0.04024 0.0668,0.04024 0.0769,0 0.0065,-0.0257 0.01355,-0.02916 0.05984,-0.02916 0.0447,0 0.05449,0.0043 0.0658,0.02916 0.01767,0.03878 0.05974,0.03878 0.0774,0 0.01122,-0.02462 0.02121,-0.02916 0.06415,-0.02916 0.04294,0 0.05294,0.0045 0.06415,0.02916 0.01741,0.03822 0.05682,0.03822 0.07423,0 0.01122,-0.02462 0.02121,-0.02916 0.06415,-0.02916 0.04294,0 0.05294,0.0045 0.06415,0.02916 0.01767,0.03878 0.05974,0.03878 0.0774,0 0.01122,-0.02462 0.02121,-0.02916 0.06415,-0.02916 0.04294,0 0.05294,0.0045 0.06415,0.02916 0.0079,0.01725 0.02302,0.02916 0.03712,0.02916 0.0141,0 0.02925,-0.01191 0.03712,-0.02916 0.01121,-0.02462 0.02121,-0.02916 0.06415,-0.02916 0.04294,0 0.05294,0.0045 0.06415,0.02916 0.01767,0.03878 0.05974,0.03878 0.0774,0 0.01098,-0.0241 0.02146,-0.02916 0.06044,-0.02916 0.03898,0 0.04946,0.0051 0.06044,0.02916 0.01796,0.03942 0.06369,0.03942 0.08165,0 0.01109,-0.02433 0.02136,-0.02916 0.06203,-0.02916 0.04067,0 0.05094,0.0048 0.06203,0.02916 0.0087,0.01912 0.02277,0.02916 0.04083,0.02916 0.01805,0 0.03211,-0.01004 0.04082,-0.02916 0.01098,-0.0241 0.02146,-0.02916 0.06044,-0.02916 0.03898,0 0.04946,0.0051 0.06044,0.02916 0.01808,0.03967 0.06444,0.03967 0.07953,0 0.0095,-0.02496 0.01843,-0.02916 0.06199,-0.02916 0.04298,0 0.05297,0.0045 0.06419,0.02916 0.0079,0.01725 0.02302,0.02916 0.03712,0.02916 0.0141,0 0.02925,-0.01191 0.03712,-0.02916 0.01121,-0.02462 0.02121,-0.02916 0.06415,-0.02916 0.04294,0 0.05294,0.0045 0.06415,0.02916 0.01767,0.03878 0.05974,0.03878 0.0774,0 0.01122,-0.02462 0.02121,-0.02916 0.06415,-0.02916 0.04294,0 0.05294,0.0045 0.06415,0.02916 0.01742,0.03822 0.05682,0.03822 0.07423,0 0.01121,-0.02462 0.02121,-0.02916 0.06415,-0.02916 0.04294,0 0.05294,0.0045 0.06415,0.02916 0.01767,0.03878 0.05974,0.03878 0.0774,0 0.01131,-0.02482 0.02111,-0.02916 0.0658,-0.02916 0.04629,0 0.05338,0.0035 0.05984,0.02916 0.0053,0.02103 0.01517,0.02916 0.03546,0.02916 0.0187,0 0.0326,-0.0098 0.04143,-0.02916 0.01109,-0.02433 0.02136,-0.02916 0.06203,-0.02916 0.04067,0 0.05094,0.0048 0.06203,0.02916 0.0087,0.01912 0.02277,0.02916 0.04083,0.02916 0.01805,0 0.03211,-0.01004 0.04082,-0.02916 0.01098,-0.0241 0.02146,-0.02916 0.06044,-0.02916 0.03898,0 0.04946,0.0051 0.06044,0.02916 0.0087,0.01912 0.02277,0.02916 0.04083,0.02916 0.01805,0 0.03211,-0.01004 0.04082,-0.02916 0.01109,-0.02433 0.02136,-0.02916 0.06203,-0.02916 0.04067,0 0.05094,0.0048 0.06203,0.02916 0.01845,0.0405 0.06882,0.0405 0.07898,0 0.0064,-0.02559 0.01361,-0.02916 0.05879,-0.02916 0.04359,0 0.05351,0.0045 0.06476,0.02916 0.01767,0.03878 0.05974,0.03878 0.0774,0 0.01122,-0.02462 0.02121,-0.02916 0.06415,-0.02916 0.04294,0 0.05294,0.0045 0.06415,0.02916 0.01742,0.03822 0.05682,0.03822 0.07423,0 0.01121,-0.02462 0.02121,-0.02916 0.06415,-0.02916 0.04294,0 0.05294,0.0045 0.06415,0.02916 0.01767,0.03878 0.05974,0.03878 0.0774,0 0.01122,-0.02462 0.02121,-0.02916 0.06415,-0.02916 0.04294,0 0.05294,0.0045 0.06415,0.02916 0.01742,0.03822 0.05682,0.03822 0.07423,0 0.01122,-0.02462 0.02121,-0.02916 0.06415,-0.02916 0.04294,0 0.05294,0.0045 0.06415,0.02916 0.01767,0.03878 0.05974,0.03878 0.0774,0 0.01098,-0.0241 0.02146,-0.02916 0.06044,-0.02916 0.03898,0 0.04946,0.0051 0.06044,0.02916 0.01796,0.03942 0.06369,0.03942 0.08165,0 0.01109,-0.02433 0.02135,-0.02916 0.06203,-0.02916 0.04067,0 0.05094,0.0048 0.06203,0.02916 0.01796,0.03942 0.06369,0.03942 0.08165,0 0.01098,-0.0241 0.02146,-0.02916 0.06044,-0.02916 0.03898,0 0.04946,0.0051 0.06044,0.02916 0.0087,0.01912 0.02277,0.02916 0.04082,0.02916 0.01805,0 0.03211,-0.01004 0.04082,-0.02916 0.01109,-0.02433 0.02136,-0.02916 0.06203,-0.02916 0.04067,0 0.05094,0.0048 0.06203,0.02916 0.0079,0.01725 0.02302,0.02916 0.03712,0.02916 0.0141,0 0.02925,-0.01191 0.03712,-0.02916 0.01121,-0.02462 0.02121,-0.02916 0.06415,-0.02916 0.04294,0 0.05294,0.0045 0.06415,0.02916 0.01767,0.03878 0.05974,0.03878 0.0774,0 0.01122,-0.02462 0.02121,-0.02916 0.06415,-0.02916 0.04294,0 0.05294,0.0045 0.06415,0.02916 0.01719,0.03773 0.05679,0.03826 0.07378,9.87e-4 0.0071,-0.0155 0.02269,-0.03075 0.03474,-0.0339 0.0135,-0.0035 0.02197,-0.01622 0.02207,-0.03307 4.07e-4,-0.06989 0.0085,-0.07709 0.129368,-0.114631 0.09495,-0.0295 0.115419,-0.03994 0.115419,-0.05885 0,-0.02001 0.0081,-0.02299 0.06248,-0.02299 h 0.06248 l 0.0089,-0.08457 c 0.0049,-0.04651 0.0084,-0.09244 0.0076,-0.102061 -7.12e-4,-0.0096 -0.0046,-0.142158 -0.0087,-0.294521 l -0.0074,-0.277024 h 0.131131 0.13113 l -0.0069,0.277024 c -0.0038,0.152363 -0.0075,0.282273 -0.0082,0.288689 -7.47e-4,0.0064 0.0025,0.05234 0.0072,0.102061 0.0084,0.08882 0.0091,0.0904 0.04072,0.0904 h 0.03216 l 0.004,0.108445 c 0.0031,0.08225 0.0094,0.116669 0.02637,0.142483 0.02224,0.0339 0.02237,0.03394 0.03386,0.0082 0.0092,-0.02073 0.02119,-0.02584 0.06036,-0.02584 0.04077,0 0.05103,0.0048 0.06212,0.02916 0.01295,0.02842 0.01642,0.02916 0.136011,0.02916 0.138624,0 0.1422,0.003 0.09784,0.08193 l -0.02488,0.04428 0.06915,0.120609 c 0.04818,0.08404 0.0775,0.152434 0.09669,0.225586 0.01515,0.05774 0.03066,0.111061 0.03447,0.118496 0.0038,0.0074 0.04892,0.04563 0.100244,0.08488 l 0.09331,0.07136 0.03817,0.119242 c 0.0273,0.08529 0.04162,0.159096 0.05031,0.259211 0.0067,0.07698 0.01482,0.167527 0.01808,0.201207 l 0.0059,0.06124 h 0.06319 0.0632 l 0.04259,0.06415 0.04259,0.06415 h 0.470747 0.470748 l 1.65e-4,-0.03208 c 3.31e-4,-0.05791 0.01078,-0.06291 0.126149,-0.06038 0.07117,0.0016 0.112368,-0.0025 0.124095,-0.01223 0.02701,-0.02242 0.05285,-0.0056 0.05285,0.03433 0,0.01945 0.0052,0.03536 0.01166,0.03536 0.0064,0 0.01166,-0.0079 0.01166,-0.0175 0,-0.01389 0.01685,-0.0175 0.08165,-0.0175 0.0648,0 0.08165,0.0036 0.08165,0.0175 0,0.01222 0.01231,0.0175 0.04082,0.0175 0.02851,0 0.04082,-0.0053 0.04082,-0.0175 0,-0.02533 0.06564,-0.02296 0.08071,0.0029 0.01113,0.01912 0.01191,0.01903 0.01224,-0.0013 3.3e-4,-0.01907 0.0057,-0.02049 0.04409,-0.01166 0.02406,0.0055 0.194098,0.01005 0.377868,0.01005 0.301851,0 0.336306,-0.002 0.356676,-0.02041 0.01622,-0.01468 0.04226,-0.02041 0.09276,-0.02041 h 0.07021 l 0.02106,0.0467 c 0.019,0.04212 0.02026,0.06914 0.01291,0.275593 -0.0069,0.194464 -0.01161,0.235685 -0.03119,0.274063 -0.02235,0.0438 -0.0249,0.04517 -0.08436,0.04517 -0.03964,0 -0.07152,-0.0072 -0.09016,-0.02041 -0.05215,-0.03691 -0.661355,-0.03484 -0.749103,0.0025 -0.01605,0.0068 -0.02057,0.0028 -0.02115,-0.0188 l -7.33e-4,-0.02749 -0.01055,0.02624 c -0.01437,0.03575 -0.08129,0.03815 -0.08129,0.0029 0,-0.01944 -0.0078,-0.02333 -0.04666,-0.02333 -0.02566,0 -0.04666,0.0053 -0.04666,0.01166 0,0.0065 -0.0311,0.01166 -0.06998,0.01166 -0.03888,0 -0.06999,-0.0052 -0.06999,-0.01166 0,-0.0064 -0.0105,-0.01166 -0.02333,-0.01166 -0.01804,0 -0.02333,0.0078 -0.02333,0.0343 0,0.04379 -0.0186,0.05524 -0.04739,0.02918 -0.01306,-0.01182 -0.02259,-0.01476 -0.02259,-0.007 0,0.0092 -0.03334,0.01347 -0.10484,0.01347 h -0.104841 l -0.0075,-0.04666 -0.0075,-0.04666 h -0.47079 -0.470789 l -0.04259,0.06415 c -0.04242,0.06389 -0.04284,0.06415 -0.102444,0.06415 h -0.05985 l -0.01427,0.05541 c -0.01925,0.07474 -0.06928,0.302211 -0.0776,0.352842 -0.0037,0.02245 -0.01726,0.110927 -0.03014,0.196607 -0.02683,0.178397 -0.03259,0.204552 -0.05415,0.245854 -0.0086,0.01647 -0.01566,0.0365 -0.01569,0.04452 0,0.008 -0.0098,0.01458 -0.02177,0.01458 -0.01194,0 -0.04495,0.0032 -0.07338,0.0071 -0.06067,0.0083 -0.06235,0.006 -0.102727,-0.142084 -0.01387,-0.05085 -0.04411,-0.154076 -0.06722,-0.229396 l -0.042,-0.136945 -1.803155,-0.0057 c -0.991736,-0.0031 -2.040625,-0.0097 -2.330866,-0.01469 l -0.527712,-0.009 -0.01899,0.04666 c -0.02138,0.05254 -0.0744,0.308802 -0.07446,0.359971 0,0.03216 -0.0016,0.03309 -0.04378,0.02562 -0.09186,-0.01628 -0.08601,-0.0042 -0.07726,-0.159017 0.0043,-0.0765 0.0043,-0.139096 -1.15e-4,-0.139096 -0.0044,0 -0.03287,0.01262 -0.0633,0.02804 -0.0945,0.04789 -0.190268,0.191551 -0.259601,0.389429 -0.01667,0.04758 -0.01877,0.06796 -0.0092,0.08901 0.01248,0.02739 0.0095,0.04834 -0.02616,0.181709 -0.0266,0.09959 -1.048463,2.653718 -1.08154,2.703298 -0.04195,0.06288 -0.191584,0.177364 -0.305368,0.233635 l -0.08748,0.04326 -0.502953,0.0033 -0.502952,0.0033 -0.413882,-0.07617 c -0.227636,-0.04189 -0.431715,-0.07611 -0.453511,-0.07604 -0.02179,5.5e-5 -0.126233,-0.01361 -0.232086,-0.0304 -0.187114,-0.02968 -0.372167,-0.08204 -0.400279,-0.113259 -0.0076,-0.0084 -0.03171,-0.03451 -0.0536,-0.05797 -0.05914,-0.06336 -0.06376,-0.12233 -0.03491,-0.445865 0.03876,-0.434629 0.12616,-0.909301 0.245716,-1.334474 0.06393,-0.227347 0.258945,-0.697236 0.34631,-0.834429 0.03464,-0.0544 0.03673,-0.06405 0.03665,-0.169131 -1.1e-4,-0.155416 -0.01647,-0.24046 -0.06988,-0.363609 -0.0577,-0.133033 -0.104722,-0.190776 -0.220045,-0.270217 l -0.09102,-0.0627 -0.650357,0.01585 -0.650358,0.01585 -0.05661,0.02869 c -0.04764,0.02414 -0.07513,0.05412 -0.173474,0.189205 l -0.116856,0.16052 -4.41e-4,0.217275 c -3.85e-4,0.182418 0.0025,0.219683 0.01765,0.232285 0.01006,0.0084 0.01653,0.02839 0.01458,0.04517 -0.0035,0.03012 -0.0037,0.03016 -0.129554,0.03348 -0.1241,0.0033 -0.125926,0.0037 -0.11813,0.02916 0.0044,0.01421 0.01181,0.03109 0.01656,0.03751 0.0048,0.0064 0.01197,0.08044 0.01603,0.164508 0.01733,0.358865 0.134922,1.225208 0.216091,1.592031 0.03181,0.143749 0.07436,0.340096 0.09456,0.436325 0.0202,0.09623 0.06631,0.287813 0.102476,0.425742 0.05417,0.2066 0.072,0.258449 0.101235,0.294311 0.01952,0.02394 0.04167,0.04362 0.04924,0.04374 0.0076,1.11e-4 0.022,0.02858 0.03208,0.06324 0.02122,0.07299 0.02303,0.100266 0.0067,0.100266 -0.0064,0 -0.01166,0.01557 -0.01166,0.0346 0,0.01903 -0.0088,0.05303 -0.01953,0.07556 -0.01526,0.032 -0.03121,0.04475 -0.0729,0.05828 -0.02935,0.0095 -0.342058,0.106392 -0.694898,0.215254 -0.352842,0.108861 -0.735485,0.22978 -0.850319,0.268709 -0.204996,0.06949 -0.210928,0.07074 -0.326597,0.06882 -0.06479,-0.0011 -0.137167,-0.004 -0.160828,-0.0065 z m 5.64822,-1.332067 c 0.06795,-0.02582 0.139406,-0.07658 0.139406,-0.09902 0,-0.0084 0.01033,-0.02846 0.02294,-0.0445 0.01262,-0.01604 0.220524,-0.532452 0.462009,-1.147577 0.241486,-0.615125 0.445685,-1.126283 0.453775,-1.135906 0.0081,-0.0096 0.04115,-0.09388 0.07347,-0.187229 l 0.05876,-0.169732 -0.01639,-0.133214 -0.0164,-0.133214 -0.07759,-0.07819 c -0.06433,-0.06483 -0.09473,-0.08534 -0.177908,-0.120052 -0.09303,-0.03883 -0.108963,-0.04185 -0.219342,-0.04169 l -0.119022,1.65e-4 -0.06505,0.108999 c -0.0566,0.09484 -0.06895,0.127038 -0.0951,0.247864 -0.02697,0.124643 -0.02871,0.147022 -0.01702,0.218522 0.01449,0.08857 0.07181,0.233737 0.107148,0.27137 0.01457,0.01551 0.02004,0.03199 0.01499,0.04515 -0.0066,0.01727 -0.01729,0.01962 -0.06405,0.01408 -0.03085,-0.0037 -0.06895,-0.01347 -0.08466,-0.02182 -0.04199,-0.02231 -0.150305,-0.15975 -0.183027,-0.232228 -0.0273,-0.06048 -0.02853,-0.0742 -0.03187,-0.357414 l -0.0035,-0.29452 -0.153989,2.75e-4 c -0.12823,2.21e-4 -0.158166,0.0036 -0.178959,0.02041 -0.03107,0.02508 -0.175919,0.259717 -0.199506,0.323178 -0.02158,0.05808 -0.01985,0.192113 0.0038,0.294108 0.03855,0.166228 0.119236,0.292772 0.214944,0.337115 0.03223,0.01493 0.07607,0.04047 0.09742,0.05676 0.02135,0.01628 0.04812,0.02961 0.05949,0.02961 0.01575,0 0.019,0.0063 0.01364,0.02624 -0.0039,0.01443 -0.0071,0.03281 -0.0072,0.04082 -1.15e-4,0.008 -0.01223,0.01458 -0.02699,0.01458 -0.01475,0 -0.03338,0.0066 -0.04138,0.01458 -0.009,0.009 -0.06419,0.01701 -0.145262,0.02097 -0.169791,0.0083 -0.209005,0.02822 -0.269395,0.136871 -0.02336,0.04202 -0.05179,0.113588 -0.06318,0.159033 -0.01965,0.07841 -0.01969,0.0862 -7.11e-4,0.152612 0.011,0.03849 0.02042,0.102834 0.02093,0.142982 l 9.31e-4,0.073 -0.08826,0.04364 c -0.08631,0.04268 -0.08952,0.04585 -0.145482,0.143616 -0.06153,0.107493 -0.104205,0.258134 -0.145163,0.512399 -0.01085,0.06736 -0.0354,0.203479 -0.05454,0.302486 -0.03793,0.196131 -0.03686,0.219306 0.0158,0.341716 0.04355,0.101239 0.04969,0.102783 0.449668,0.113017 0.190887,0.0049 0.364069,0.0097 0.38485,0.01075 0.02078,10e-4 0.06439,-0.0082 0.09692,-0.0206 z m 3.734453,-3.719954 c 0.01578,-0.01522 0.125825,-0.257461 0.125825,-0.27697 0,-0.0026 -0.04372,-0.0047 -0.09715,-0.0047 h -0.09715 l -0.04151,0.107894 c -0.0591,0.153627 -0.06024,0.16688 -0.01616,0.188808 0.04145,0.02062 0.09593,0.01415 0.126136,-0.01498 z m 1.350563,0.0093 c 0.01465,-0.0075 0.128306,-0.258226 0.128306,-0.28302 0,-0.0044 -0.0433,-0.008 -0.09623,-0.0079 l -0.09623,1.65e-4 -0.05031,0.129332 c -0.04733,0.121657 -0.04916,0.130607 -0.03086,0.15083 0.02953,0.03263 0.09338,0.03728 0.145326,0.01058 z m 0.421745,0.0119 c 0.04072,-0.01131 0.04517,-0.01781 0.09766,-0.142821 0.03025,-0.07203 0.05754,-0.137533 0.06065,-0.145552 0.0042,-0.01096 -0.01887,-0.01458 -0.09312,-0.01458 h -0.09877 l -0.02495,0.06519 c -0.01372,0.03586 -0.02495,0.07543 -0.02495,0.08795 0,0.01252 -0.01086,0.04405 -0.02414,0.07008 -0.01328,0.02603 -0.02232,0.04914 -0.0201,0.05137 0.0065,0.0065 0.07287,0.04021 0.07923,0.04022 0.0032,4e-6 0.02503,-0.0053 0.04849,-0.01184 z m 0.487375,-0.01808 c 0.0092,-0.0088 0.04156,-0.07523 0.07182,-0.147547 l 0.05501,-0.13149 -0.08828,-0.0034 c -0.04856,-0.0019 -0.09399,-0.0012 -0.100977,0.0015 -0.007,0.0027 -0.02522,0.04361 -0.04053,0.09092 -0.01531,0.04731 -0.03574,0.105585 -0.04539,0.129494 -0.01387,0.03435 -0.01458,0.04705 -0.0034,0.06054 0.02676,0.03224 0.11802,0.03228 0.151752,5.5e-5 z m 0.451793,-0.0086 c 0.02237,-0.02252 0.120437,-0.239103 0.120437,-0.266001 0,-0.0057 -0.0421,-0.01031 -0.09356,-0.01031 -0.08608,0 -0.09442,0.0021 -0.104255,0.02625 -0.0059,0.01443 -0.02997,0.07243 -0.05353,0.128876 -0.04073,0.09759 -0.04185,0.103719 -0.02283,0.124738 0.0374,0.04133 0.110836,0.03964 0.153744,-0.0035 z m 0.445543,0.01538 c 0.01401,-0.0074 0.100059,-0.193036 0.123049,-0.265472 0.0082,-0.02575 0.0066,-0.02621 -0.08931,-0.02621 h -0.09763 l -0.02159,0.06124 c -0.01187,0.03368 -0.03689,0.09198 -0.05559,0.129562 l -0.03401,0.06833 0.02681,0.01916 c 0.04847,0.03464 0.09927,0.03923 0.148266,0.0134 z m 2.834839,-0.485589 0.05144,-0.02323 -0.06311,-0.02783 c -0.09494,-0.04187 -0.287251,-0.04766 -0.387471,-0.01167 -0.03972,0.01426 -0.07665,0.03005 -0.08207,0.03508 -0.0054,0.005 0.0182,0.02018 0.05249,0.03366 0.05457,0.02145 0.08198,0.02405 0.219809,0.02087 0.126787,-0.0029 0.167489,-0.0082 0.208909,-0.02687 z m -2.660787,-0.301823 c 0.0058,-0.05912 -0.01678,-0.07585 -0.113225,-0.08393 -0.09993,-0.0084 -0.117657,0.0038 -0.117657,0.08075 v 0.04485 l 0.113726,-0.0033 0.113725,-0.0033 z m -3.07747,-0.539468 c -0.03561,-0.09833 -0.05455,-0.107894 -0.213607,-0.107894 -0.102103,0 -0.123278,0.0033 -0.143858,0.02248 -0.0215,0.02003 -0.02275,0.02766 -0.01145,0.06998 l 0.01268,0.0475 h 0.183927 0.183929 z m 0.498788,-0.0096 c -0.007,-0.02291 -0.02794,-0.0544 -0.04646,-0.06999 -0.03117,-0.02622 -0.04319,-0.02834 -0.16109,-0.02834 -0.109978,0 -0.130467,0.0031 -0.14975,0.02234 -0.01934,0.01934 -0.02072,0.02873 -0.01025,0.06998 l 0.01209,0.04765 h 0.184115 0.184117 z m 0.50032,-0.0021 c -0.02294,-0.06696 -0.06682,-0.08333 -0.225247,-0.08401 -0.149668,-6.45e-4 -0.160009,0.0054 -0.140429,0.08258 l 0.01147,0.04517 h 0.184597 0.184598 z m 0.500743,0.01166 c -0.02078,-0.08452 -0.04941,-0.09588 -0.242096,-0.0961 -0.13104,-1.65e-4 -0.145694,0.0099 -0.124772,0.08569 l 0.01173,0.04249 h 0.181511 0.181511 z m 0.401939,-0.03208 v -0.06415 h -0.126878 c -0.150923,0 -0.164842,0.008 -0.142665,0.08202 l 0.01387,0.04629 h 0.127837 0.127838 z m -3.081937,-0.140632 c 0.01426,-0.01 0.02592,-0.02731 0.02592,-0.03849 0,-0.04027 -0.02469,-0.04833 -0.148135,-0.04833 h -0.120141 v 0.04568 c 0,0.02563 0.0064,0.04827 0.01458,0.05157 0.008,0.0032 0.05672,0.0063 0.108215,0.0068 0.06707,6.61e-4 0.100987,-0.0042 0.119558,-0.01724 z m 0.403781,0.003 c 0.01379,-0.01008 0.01941,-0.02668 0.01681,-0.04957 l -0.0039,-0.03442 h -0.128306 -0.128306 l -0.0039,0.03442 c -0.0058,0.05129 0.02161,0.06473 0.132223,0.06473 0.05926,0 0.102443,-0.0057 0.115413,-0.01516 z"
       style="fill:#ffffff;stroke-width:0.01166417;fill-opacity:1" />
  </g>
</svg>
