<?xml version="1.0" encoding="UTF-8" standalone="no"?>
<svg
   xmlns:dc="http://purl.org/dc/elements/1.1/"
   xmlns:cc="http://creativecommons.org/ns#"
   xmlns:rdf="http://www.w3.org/1999/02/22-rdf-syntax-ns#"
   xmlns:svg="http://www.w3.org/2000/svg"
   xmlns="http://www.w3.org/2000/svg"
   id="svg8"
   version="1.1"
   viewBox="0 0 27.536806 8.4671865"
   height="32.001965"
   width="104.07613">
  <defs
     id="defs2" />
  <metadata
     id="metadata5">
    <rdf:RDF>
      <cc:Work
         rdf:about="">
        <dc:format>image/svg+xml</dc:format>
        <dc:type
           rdf:resource="http://purl.org/dc/dcmitype/StillImage" />
        <dc:title></dc:title>
      </cc:Work>
    </rdf:RDF>
  </metadata>
  <g
     transform="translate(58.272943,-131.85075)"
     id="layer1">
    <path
       id="path826"
       d="m -47.862946,140.03834 c -0.03493,-0.0103 -0.07558,-0.036 -0.09033,-0.057 -0.01475,-0.0211 -0.658424,-0.38526 -1.430383,-0.80933 -0.969574,-0.53264 -1.411677,-0.78569 -1.429806,-0.8184 -0.01443,-0.026 -0.02656,-0.0661 -0.02695,-0.0891 l -7.02e-4,-0.0417 -2.036046,-0.003 c -1.8521,-0.003 -2.303555,-0.01 -2.303555,-0.0366 0,-0.0281 0.14831,-0.26815 0.171047,-0.27687 0.0217,-0.008 0.02711,-0.0907 0.02711,-0.41325 v -0.40284 l -0.0644,-0.006 -0.0644,-0.006 -0.0055,-0.27428 -0.0055,-0.27428 -1.019389,0.007 -1.019389,0.007 -0.04512,0.0451 c -0.04151,0.0415 -0.04599,0.0677 -0.05589,0.32696 -0.0059,0.15503 -0.01772,0.29667 -0.0262,0.31475 -0.02317,0.0494 -0.09521,0.0601 -0.388451,0.0579 -0.265573,-0.002 -0.267113,-0.002 -0.309807,-0.0558 -0.06356,-0.0797 -0.24833,-0.74695 -0.267599,-0.96635 -0.0086,-0.0981 -0.0167,-0.64657 -0.01797,-1.21884 -0.0025,-1.13164 -0.0057,-1.09707 0.11036,-1.19381 0.0321,-0.0268 0.223332,-0.11284 0.424955,-0.19128 l 0.366588,-0.14263 2.110353,-0.009 c 1.160695,-0.005 2.130371,-0.0138 2.154837,-0.0191 0.02447,-0.005 0.11603,-0.0551 0.203476,-0.11064 0.153159,-0.0972 0.165338,-0.10132 0.332011,-0.11125 0.121176,-0.007 0.183125,-0.0199 0.206746,-0.0424 0.07452,-0.0708 0.09628,-0.0816 0.165008,-0.0816 0.03938,0 0.08498,-0.0134 0.10133,-0.0297 0.01912,-0.0191 0.0681,-0.0297 0.137293,-0.0297 h 0.10757 l 2.81e-4,-0.44089 c 1.68e-4,-0.24249 0.0056,-0.46096 0.01222,-0.48548 0.01008,-0.0376 0.02549,-0.0446 0.09846,-0.0446 h 0.08651 l 0.0053,0.4888 0.0053,0.48879 0.08422,0.0281 c 0.04632,0.0154 0.08422,0.0407 0.08422,0.0561 0,0.018 0.02137,0.0281 0.05945,0.0281 0.0327,0 0.05945,-0.009 0.05945,-0.0198 0,-0.0109 0.02229,-0.0198 0.04954,-0.0198 h 0.04954 v -0.40742 -0.40741 l 0.07431,0.006 c 0.07431,0.006 0.07431,0.006 0.08721,0.11513 0.0071,0.0599 0.01378,0.24051 0.01486,0.40127 l 0.002,0.29228 h 0.257233 c 0.25686,0 0.257556,1.2e-4 0.480526,0.0871 0.122812,0.0479 0.249407,0.0952 0.281325,0.10521 0.03192,0.01 0.06759,0.0351 0.07926,0.0557 0.04409,0.0781 0.06749,0.0888 0.193202,0.0885 0.144051,-3.5e-4 0.164413,-0.009 0.193652,-0.0863 0.01668,-0.0439 0.02882,-0.0525 0.05573,-0.0395 0.05803,0.0279 0.53878,0.0327 0.571363,0.006 0.0225,-0.0187 0.0361,-0.0168 0.06439,0.009 0.01973,0.0179 0.04662,0.0325 0.05977,0.0325 0.01315,0 0.04489,0.0138 0.07055,0.0306 0.03476,0.0228 0.08862,0.0291 0.21148,0.0248 0.15458,-0.005 0.16552,-0.009 0.17579,-0.0524 l 0.01095,-0.0466 h 0.343546 c 0.223914,0 0.351152,0.008 0.365392,0.0219 0.01202,0.012 0.03235,0.0219 0.04518,0.0219 0.01283,0 0.03469,0.0137 0.04857,0.0304 0.02012,0.0242 0.06361,0.0293 0.214592,0.0248 0.1804,-0.005 0.189877,-0.008 0.200321,-0.0522 l 0.01096,-0.0466 h 0.34301 c 0.341444,0 0.343273,2.4e-4 0.400889,0.0516 0.05357,0.0477 0.07154,0.0516 0.241345,0.0513 0.195654,-3.3e-4 0.224268,-0.008 0.235665,-0.0662 0.0067,-0.0341 0.03194,-0.0368 0.349568,-0.0367 l 0.342321,5e-5 0.04057,0.0516 c 0.03899,0.0496 0.04846,0.0516 0.244119,0.0516 0.214432,0 0.242195,-0.0108 0.276688,-0.10734 0.01034,-0.029 0.01907,-0.0325 0.0367,-0.0149 0.01309,0.0131 0.0816,0.0231 0.157874,0.0231 h 0.134746 v 0.14186 0.14187 l 0.430988,-0.013 c 0.237043,-0.007 0.495636,-0.013 0.57465,-0.0131 l 0.143663,-5e-5 v -0.1186 c 0,-0.0978 0.01071,-0.136 0.06115,-0.21797 0.03363,-0.0547 0.07376,-0.0994 0.08917,-0.0994 0.01648,0 0.02802,-0.0199 0.02802,-0.0483 0,-0.0265 0.0091,-0.0721 0.02018,-0.10134 l 0.02018,-0.0531 0.688222,0.0161 c 0.773675,0.0181 9.018164,0.0157 10.004536,-0.003 l 0.63711,-0.012 0.0069,0.27751 c 0.0062,0.25067 0.0112,0.28333 0.05148,0.33777 0.02649,0.0358 0.04459,0.0887 0.04459,0.13042 v 0.0702 h 0.18955 c 0.104253,0 0.207557,0.01 0.229564,0.0214 0.06727,0.036 0.114986,0.17102 0.115469,0.32676 3.37e-4,0.11411 -0.0097,0.16008 -0.05406,0.2477 -0.03012,0.0595 -0.07665,0.11853 -0.104031,0.13206 -0.03105,0.0153 -0.140153,0.0246 -0.292279,0.0248 l -0.24274,2.8e-4 v 0.0789 0.0789 l 0.470618,0.005 0.470619,0.005 0.01602,0.19816 c 0.02004,0.24794 -0.01594,1.23641 -0.04609,1.26655 -0.01488,0.0149 -0.348199,0.0215 -1.085091,0.0215 h -1.063628 l -0.02535,0.17704 c -0.01394,0.0974 -0.03942,0.19852 -0.05662,0.22477 -0.02984,0.0455 -0.03777,0.0471 -0.173267,0.0337 -0.0781,-0.008 -0.146344,-0.0181 -0.151656,-0.0231 -0.0053,-0.005 -0.0098,-0.0521 -0.0099,-0.10456 -2.25e-4,-0.0873 -0.0089,-0.10476 -0.102068,-0.20488 l -0.101818,-0.10942 -2.451869,-0.002 c -2.703608,-0.003 -2.546071,-0.01 -2.546071,0.11664 0,0.10183 -0.01685,0.12005 -0.110981,0.12005 -0.0798,0 -0.09176,-0.007 -0.14593,-0.0842 -0.118678,-0.16939 0.01032,-0.15357 -1.252536,-0.15357 h -1.126018 v 0.16627 c 0,0.16479 7.07e-4,0.16713 0.07926,0.26219 0.07609,0.0921 0.09315,0.14638 0.06723,0.21392 -0.01044,0.0272 -0.06686,0.0313 -0.426823,0.0313 -0.374444,0 -0.422285,0.004 -0.491784,0.0393 -0.07256,0.037 -0.124426,0.0396 -0.901682,0.0446 -0.806549,0.005 -0.824875,0.006 -0.832996,0.0449 -0.0046,0.0218 -0.02262,0.20905 -0.04011,0.41612 -0.03683,0.43592 -0.06517,0.55759 -0.143081,0.61428 -0.04949,0.036 -0.09195,0.0402 -0.464119,0.0463 -0.352313,0.006 -0.413554,0.0113 -0.437545,0.0396 -0.01906,0.0225 -0.05676,0.28794 -0.119075,0.83846 -0.08262,0.72983 -0.09606,0.81513 -0.143132,0.90802 -0.03688,0.0728 -0.07033,0.10998 -0.11528,0.12821 -0.07905,0.032 -2.600778,0.0592 -2.702859,0.0291 z m 2.634708,-0.22539 c 0.03815,-0.0159 0.07438,-0.042 0.0805,-0.058 0.01219,-0.0318 0.06822,-0.48478 0.132623,-1.07225 0.0227,-0.20707 0.04992,-0.42646 0.0605,-0.48753 l 0.01922,-0.11103 -0.170153,-0.17131 c -0.09358,-0.0942 -0.189597,-0.1752 -0.213362,-0.17996 -0.02376,-0.005 -0.08498,-0.0135 -0.136039,-0.0193 -0.08418,-0.01 -0.09729,-0.005 -0.140701,0.0463 -0.03393,0.0403 -0.110766,0.0801 -0.263849,0.13661 -0.118789,0.0438 -0.231963,0.086 -0.2515,0.0936 -0.096,0.0375 -0.142134,0.29018 -0.320962,1.75772 l -0.01147,0.0941 h 0.572913 c 0.457943,0 0.586833,-0.006 0.642283,-0.029 z m -2.480436,-1.15994 c 0.08804,-0.23706 0.135188,-0.40051 0.197185,-0.68364 0.06403,-0.29243 0.111692,-0.3552 0.390544,-0.5144 0.219705,-0.12543 0.284805,-0.22119 0.311698,-0.45852 l 0.0137,-0.12086 -0.125446,-0.0129 c -0.07784,-0.008 -0.324835,-0.0806 -0.650839,-0.19124 l -0.525394,-0.17836 h -0.33073 -0.33073 l -0.01301,-0.0694 -0.01301,-0.0693 h -0.242997 c -0.165346,0 -0.269919,0.009 -0.327243,0.0297 -0.04633,0.0163 -0.08758,0.0297 -0.09166,0.0297 -0.0041,0 -0.0074,-0.0134 -0.0074,-0.0297 0,-0.0235 -0.02837,-0.0297 -0.136398,-0.0297 -0.124698,0 -0.137422,0.004 -0.148345,0.0446 -0.02087,0.0779 -0.01387,0.11393 0.02219,0.11424 0.02879,2.3e-4 0.02979,0.003 0.0059,0.0185 -0.02425,0.0153 -0.02801,0.10375 -0.02379,0.55948 0.0056,0.60743 0.01745,0.67808 0.132061,0.78916 0.07476,0.0725 1.746158,0.99228 1.789931,0.98506 0.01461,-0.002 0.06133,-0.098 0.103832,-0.21245 z m 3.7391,-0.77281 c 0.05971,-0.0394 0.07744,-0.11544 0.102928,-0.44154 0.01174,-0.15021 0.02665,-0.31177 0.03312,-0.35903 l 0.01178,-0.0859 -0.08655,-0.0121 c -0.0476,-0.007 -0.276799,-0.0119 -0.509322,-0.0116 l -0.422769,5.6e-4 0.0066,0.32603 0.0066,0.32602 -0.06744,-2e-5 c -0.05374,-1e-5 -0.08873,-0.0201 -0.1722,-0.0991 l -0.10476,-0.0991 h -0.179526 -0.179526 v 0.0672 0.0672 l 0.150375,0.008 0.150375,0.008 0.163662,0.17431 0.163661,0.1743 0.443907,-0.006 c 0.35334,-0.005 0.453108,-0.0124 0.489001,-0.0361 z m -1.271659,-0.55376 c 0.0316,-0.0103 0.122098,-0.0374 0.201112,-0.0603 l 0.143663,-0.0415 v -0.0943 c 0,-0.0519 -0.0107,-0.10498 -0.02378,-0.11806 -0.02498,-0.025 -0.439825,-0.0347 -0.499712,-0.0118 -0.02456,0.009 -0.03134,0.0429 -0.03134,0.15456 0,0.0844 0.0097,0.15223 0.02378,0.16631 0.02855,0.0286 0.107648,0.0307 0.186281,0.005 z"
       style="fill:#ffffff;stroke-width:0.01981553;fill-opacity:1" />
  </g>
</svg>
