"VertexLitGeneric"
{
"$basetexture" "models\Jacob_LHh3_Ports\ModernWarfare2019\Weapons\Oden/Sights"
"$bumpmap" "models\Jacob_LHh3_Ports\ModernWarfare2019\Weapons\Oden\Sights_n"
"$PhongExponentTexture" "models\Jacob_LHh3_Ports\ModernWarfare2019\Weapons\Oden\Sights_s"

	"$color2"	"[.2 .2 .2]"
	"$blendtintbybasealpha" "1"

	"$bumpmapalphaphongmask" 1
	"$basemapalphaenvmapmask" 1

	"$envmap" "models\Jacob_LHh3_Ports\ModernWarfare2019\Weapons\SharedAttachments\Cubemap_Metallic"

	"$phong" "1"
	"$phongboost"	"3"

	"$phongalbedotint"	"1"

	"$phongfresnelranges"	"[0.5 4.75 5]"

	"$envmaptint"	"[.01 .01 .01]"

	"$envmapfresnel"	"1.4"

	"$halflambert" "1"
	"$ambientocclusion" "1"
	"$nocull" "0"

	"$rimlight" "1"
	"$rimlightboost" "1"
	"$rimmask" "1"

}