"VertexLitGeneric"
{
	"$basetexture"					"models\weapons\v_models\shot_orig12\mag_col"
	"$bumpmap"					"models\weapons\v_models\shot_orig12\mag_nml"
	"$phongexponenttexture" "models\weapons\v_models\shot_orig12\mag_spc"

	"$model"						"1"
	$halflambert					1
   	"$color"						"[1 1 1]"
	$nocull						1

	"$phong"                        "1"
	"$phongtint"                    "[1 .9 .9 ]"
	"$phongboost"                  "3"
	"$phongexponent"				"50"
	"$phongfresnelranges"         "[1 1 1]"	
	$phongalbedotint		1

	"$envmap"						"env_cubemap"
	"$normalmapalphaenvmapmask"		"1"
	"$envmaptint" "[0.05 0.05 0.05]"
	$envmapfresnel 1

}


