"vertexlitgeneric" 
{
"$basetexture" "models\weapons\v_models\saiga_spike\shg46_sp_d_diff"
"$bumpmap" "models\weapons\v_models\saiga_spike\shg46_sp_d_ddn"
"$phongExponentTexture" "models\weapons\v_models\saiga_spike\shg46_sp_d_spec"
"$nocull" "1"
"$phong"  				"1"
	
"$phongboost" 			"2"
"$phongalbedotint" 		"1"
"$phongfresnelranges" 	"[2 4 6]"
"$phongalbedoboost"            "1"
	
"$envmap" 					 	"env_cubemap"
"$envmaptint"				 	"[0.05 0.05 0.05]"

}
