"vertexlitgeneric" 
{
"$basetexture" "models\weapons\v_models\saiga_spike\shg46_diff"
"$bumpmap" "models\weapons\v_models\saiga_spike\shg46_ddn"
"$phongExponentTexture" "models\weapons\v_models\saiga_spike\shg46_spec"
"$nocull" "1"
"$phong"  				"1"
	
"$phongexponent" 			"80"
"$phongboost" 			"2"
"$phongalbedotint" 		"1"
"$phongfresnelranges" 	"[1 2 4]"
"$phongalbedoboost"            "1"
	
"$envmap" 					 	"env_cubemap"
"$envmaptint"				 	"[0.05 0.05 0.05]"

}
