"VertexlitGeneric"
{
	"$basetexture" "models/weapons/bo4/c_bo4_rk7/ximage_57729ea104b2da0"
	$color2 "[0.5 0.5 0.5]"
	$additive  "1"
	"$bumpmap" "models/weapons/bo4/c_bo4_rk7/ximage_57746ea104b5ee7"
	$phongexponenttexture "models/weapons/bo4/c_bo4_rk7/ximage_57745ea104b5d34"
	
	$phong "1"
	$phongboost "16"
	$phongfresnelranges "[1.0 1.0 1.0]"
	$phongalbedotint "1"

	$envmap "env_cubemap"
	$envmaptint "[0.1 0.1 0.1]"
	$basemapalphaenvmapmask  "1"
	$envmapfresnel "1"
}
