"VertexlitGeneric"
{
	"$basetexture" "models/weapons/bo4/c_bo4_rk7/ximage_3c9a6b6edf2cdd3"
	$color2 "[0 0 0]"
	$blendtintbybasealpha  "1"
	"$bumpmap" "models/weapons/bo4/c_bo4_rk7/ximage_3c9b1b6edf2e084"
	$phongexponenttexture "models/weapons/bo4/c_bo4_rk7/ximage_3c9b2b6edf2e237"
	$phong "1"
	$phongboost "16"
	$phongfresnelranges "[0 0.1 1.0]"
	$phongalbedotint "0"

	$envmap "env_cubemap"
	$envmaptint "[0.3 0.3 0.3]"
	$normalmapalphaenvmapmask "1"
	$envmapfresnel "1"
}
