"VertexlitGeneric"
{
	"$basetexture" "models/weapons/bo4/c_bo4_rk7/ximage_a92ea568d1c80a_s"
	$color2 "[0.5 0.5 0.5]"
	$additive  "1"
	"$bumpmap" "models/weapons/bo4/c_bo4_rk7/ximage_a92ea568d1c80a"
	"$translucent" 1
	$phongexponenttexture "models/weapons/bo4/c_bo4_rk7/ximage_a92ea568d1c80a_o"
	
	$phong "1"
	$phongboost "16"
	$phongfresnelranges "[1.0 1.0 1.0]"
	$phongalbedotint "1"

	$envmap "env_cubemap"
	$envmaptint "[0.1 0.1 0.1]"
	$basemapalphaenvmapmask  "1"
	$envmapfresnel "1"
}
