"VertexlitGeneric"
{
	"$basetexture" "models/weapons/bo4/c_bo4_rk7/ximage_98cf873362aa347"
	$color2 "[0.5 0.5 0.5]"
	$additive  "1"
	"$bumpmap" "models/weapons/bo4/c_bo4_rk7/ximage_98cdb73362a7200"
	$phongexponenttexture "models/weapons/bo4/c_bo4_rk7/ximage_98cdc73362a73b3"
	
	$phong "1"
	$phongboost "16"
	$phongfresnelranges "[1.0 1.0 1.0]"
	$phongalbedotint "1"

	$envmap "env_cubemap"
	$envmaptint "[0.1 0.1 0.1]"
	$basemapalphaenvmapmask  "1"
	$envmapfresnel "1"
}
