"VertexlitGeneric"
{
	"$basetexture" "models/weapons/v_models/codol_aa12gs/i_aa12ss_map1_c"
	$color2 "[0 0 0]"
	$blendtintbybasealpha  "1"
	"$bumpmap" "models/weapons/v_models/codol_aa12gs/i_aa12ss_map1_n"
	$phongexponenttexture	"models/weapons/v_models/codol_aa12gs/i_aa12ss_map1_o"
	$phong "1"
	$phongboost "16"
	$phongfresnelranges "[0 0.1 1.0]"
	$phongalbedotint "0"

	$envmap "env_cubemap"
	$envmaptint "[0.05 0.05 0.05]"
	$normalmapalphaenvmapmask "1"
	$envmapfresnel "1"
}
