"VertexlitGeneric"
{
	"$basetexture" "models/weapons/v_models/codol_aa12gs/i_aa12ss_map1_s"
	$color2 "[0.25 0.25 0.25]"
	$additive  "1"
	"$bumpmap" "models/weapons/v_models/codol_aa12gs/i_aa12ss_map1_n"
	$phongexponenttexture	"models/weapons/v_models/codol_aa12gs/i_aa12ss_map1_o"
	
	$phong "1"
	$phongboost "16"
	$phongfresnelranges "[1.0 1.0 1.0]"
	$phongalbedotint "1"
}
