"VertexlitGeneric"
{
	"$basetexture" "models/weapons/v_models/codol_aa12gs/i_scrolling_aa12ss_rianbow_c"
	$selfillum "1"
"Proxies"
{
"TextureScroll"
{
"texturescrollvar" "$baseTextureTransform"
"texturescrollrate" "0.3"
"texturescrollangle" "-90.0"
}
}
}
