"VertexlitGeneric"
{
	"$basetexture" "models/weapons/bo4/c_bo4_daemon_3xb/ximage_4e1a85b0bcafe34"
	$color2 "[0.5 0.5 0.5]"
	$additive  "1"
	"$bumpmap" "models/weapons/bo4/c_bo4_daemon_3xb/ximage_4e18d5b0bcad053"
	$phongexponenttexture "models/weapons/bo4/c_bo4_daemon_3xb/ximage_4e18c5b0bcacea0"
	
	$phong "1"
	$phongboost "16"
	$phongfresnelranges "[1.0 1.0 1.0]"
	$phongalbedotint "1"

	$envmap "env_cubemap"
	$envmaptint "[0.3 0.3 0.3]"
	$basemapalphaenvmapmask  "1"
	$envmapfresnel "1"
}
