"VertexLitGeneric"
{
	"$basetexture" 			"models\weapons\mw2cr\acr\ironsight\h2_acr_ironsight_d"
	"$bumpmap" 				"models\weapons\mw2cr\acr\ironsight\h2_acr_ironsight_n"
	"$PhongExponentTexture" "models\weapons\mw2cr\acr\ironsight\h2_acr_ironsight_e"
	"$blendtintbybasealpha" "1"
	"$basemapalphaenvmapmask" 1
	"$phong" "1"
	"$phongboost"	"3.5"
	"$phongexponent"	"128"
	"$phongalbedotint"	"1"
	"$phongalbedoboost"	"70"
	"$phongfresnelranges"	"[0.5 3 5]"
	"$envmap" "env_cubemap"
	"$envmaptint"	"[0.45 0.45 0.45]"
	"$envmapfresnel"	"1.4"
	"$halflambert" "1"
	"$ambientocclusion" "1"
	"$nocull" "0"	
}

//VMTs by TheZombieDon
//Do not republish without explicit permission from each author.