UnlitGeneric
{
	"$baseTexture" "models\loyalists\codol\csg12ss\eot_csg12ss_glass_col"

	"$halflambert"     "1"

	"$nocull" "0"
	"$nodecal" "1"
	
	"$translucent" "1"
	"$additive" "0"
	"$alphatest" "0"
	"$model" "1"
}