VertexLitGeneric
{
"$basetexture" "models\weapons\v_models\rif_gry\ar28_DIFF"
"$bumpmap" "models\weapons\v_models\rif_gry\ar28_DDN"
"$phongExponentTexture" "models\weapons\v_models\rif_gry\ar28_SPEC"
	"$envmap"                        "env_cubemap"      
	"$envmaptint"                    "[.03 .03 .03]" 
	"$normalmapalphaenvmapmask"      "1"  
	"$phong"                         "1"                      
	"$phongboost"                    "1.1"          
	"$phongfresnelranges" "[1.6 4 6.6]"            
	"$phongalbedotint"			"1"
	"$phongalbedoboost" "1.1"
	"$envmapfresnel"		"1"
	"$envmapFresnelMinMaxExp" "[0 4 .5]"   
	"$nocull" "1"
	"$halflambert" 	   "1" 
 
}