"VertexLitGeneric"
{
	$basetexture				"models\weapons\v_models\beretta_brigadier\barrel"
	$bumpmap					"models\weapons\v_models\beretta_brigadier\barrel_normal"
        $normalmapalphaenvmapmask	"1"
    "$phong"    "1"
    "$phongboost"    "1"
    "$nocull"    "1"
    
    "$phongexponent"    "250"

    "$phongfresnelranges"    "[0.5 3 5]"
    
    "$envmap"    "env_cubemap"
    "$envmaptint"    "[0.05 0.05 0.05]"
    "$color2"    "[2 2 2]"
}
