"VertexLitGeneric"
{
	$basetexture				"models\weapons\v_models\beretta_brigadier\parts"
	$bumpmap					"models\weapons\v_models\beretta_brigadier\parts_normal"
        $normalmapalphaenvmapmask	"1"
    "$phong"    "1"
    "$phongboost"    "1"
    "$nocull"    "1"
    
    "$phongexponent"    "500"

    "$phongfresnelranges"    "[0.5 3 5]"
    
    "$envmap"    "env_cubemap"
    "$envmaptint"    "[0.01 0.01 0.01]"
}
