"VertexlitGeneric"
{
	"$basetexture" "models/weapons/bo4/c_bo4_daemon_3xb/ximage_e5783fe25ed4322"
	$color2 "[0 0 0]"
	$blendtintbybasealpha  "1"
	"$bumpmap" "models/weapons/bo4/c_bo4_daemon_3xb/ximage_e5788fe25ed4ba1"
	$phongexponenttexture "models/weapons/bo4/c_bo4_daemon_3xb/ximage_e5787fe25ed49ee"
	$phong "1"
	$phongboost "16"
	$phongfresnelranges "[0 0.1 1.0]"
	$phongalbedotint "0"

	$envmap "env_cubemap"
	$envmaptint "[0.3 0.3 0.3]"
	$normalmapalphaenvmapmask "1"
	$envmapfresnel "1"
}
