"VertexlitGeneric"
{
	"$basetexture" "models/weapons/bo4/c_bo4_daemon_3xb/ximage_287fd037d32128"
	$color2 "[0.5 0.5 0.5]"
	$additive  "1"
	"$bumpmap" "models/weapons/bo4/c_bo4_daemon_3xb/ximage_286cd037d300df"
	$phongexponenttexture "models/weapons/bo4/c_bo4_daemon_3xb/ximage_286bd037d2ff2c"
	
	$phong "1"
	$phongboost "16"
	$phongfresnelranges "[1.0 1.0 1.0]"
	$phongalbedotint "1"

	$envmap "env_cubemap"
	$envmaptint "[0.3 0.3 0.3]"
	$basemapalphaenvmapmask  "1"
	$envmapfresnel "1"
}
