"VertexlitGeneric"
{
	"$basetexture" "models/weapons/bo4/c_bo4_daemon_3xb/ximage_7b72bc44acb3799"
	$color2 "[0.5 0.5 0.5]"
	$additive  "1"
	"$bumpmap" "models/weapons/bo4/c_bo4_daemon_3xb/ximage_7b746c44acb657a"
	$phongexponenttexture "models/weapons/bo4/c_bo4_daemon_3xb/ximage_e5787fe25ed49ee"
	
	$phong "1"
	$phongboost "16"
	$phongfresnelranges "[1.0 1.0 1.0]"
	$phongalbedotint "1"

	$envmap "env_cubemap"
	$envmaptint "[0.3 0.3 0.3]"
	$basemapalphaenvmapmask  "1"
	$envmapfresnel "1"
}
