"VertexlitGeneric"
{
	"$basetexture" "models\weapons\v_models\ts_watch\main_diffuse"
	"$bumpmap" "models\weapons\v_models\ts_watch\main_normal"
	"$nocull"	"1"
	
	"$phong" 	"1"
	"$phongexponent" 	"16"
	"$phongboost"	 "3"
	"$phongfresnelranges" "[0.1 0.3 0.05]"
	
}
