"VertexLitGeneric"
{
	$basetexture				"models\weapons\mw2cr\desert_eagle\wpn_h2_pst_desert_eagle_mag_base_col"
	$bumpmap					"models\weapons\mw2cr\desert_eagle\wpn_h2_pst_desert_eagle_mag_base_nml"
	"$phongexponenttexture"		"models\weapons\mw2cr\desert_eagle\wpn_h2_pst_desert_eagle_mag_base_s"
        $normalmapalphaenvmapmask	"1"
	"$color2"					"[0.0 0.0 0.0]"
//	"$color2"					"[0.0 0.0 0.0]"
	"$translucent"				"1"
	$envmap						env_cubemap
	$envmaptint					"[ .05 .05 .05 ]"
        $phongalbedotint			"1"
	$phongalbedoboost 		"55"
	$phong						1
	$phongexponent				45
	$phongboost					45
	$phongfresnelranges			"[0.2 0.5 1]"
}